Suite/Test/Step Name,Browser,Description,Tag,Start time,End time,Duration,Status
ts3_web_changeProfile,Chrome 117.0.0.0,,,2023-09-18 18:48:08,2023-09-18 18:58:19,10m - 10.932s,PASSED
,,,,,,,
Test Cases/tc1_Website/w3_changeProfile/we10_Mengedit password dengan data yang valid,Chrome 117.0.0.0,,,2023-09-18 18:48:08,2023-09-18 18:49:35,1m - 26.585s,PASSED
auth.Authenticate.performLoginProfile(),Chrome 117.0.0.0,,,2023-09-18 18:48:08,2023-09-18 18:48:22,13.821s,PASSED
delay(5),Chrome 117.0.0.0,,,2023-09-18 18:48:22,2023-09-18 18:48:27,5.041s,PASSED
"click(findTestObject(""Object Repository/or1_Website/orw3_updateProfile/Page_Coding.ID - Dashboard/a_Change Password""))",Chrome 117.0.0.0,,,2023-09-18 18:48:27,2023-09-18 18:48:28,0.673s,PASSED
"navigateToUrl(""https://demo-app.online/dashboard/profile/change_password"")",Chrome 117.0.0.0,,,2023-09-18 18:48:28,2023-09-18 18:48:28,0.194s,PASSED
"setEncryptedText(findTestObject(""Object Repository/or1_Website/orw3_updateProfile/Page_Coding.ID - Dashboard/input_Old Password_current_password""), ""Gz08DaJU9NXyFmL46LbsMw=="")",Chrome 117.0.0.0,,,2023-09-18 18:48:28,2023-09-18 18:48:29,0.764s,PASSED
"setEncryptedText(findTestObject(""Object Repository/or1_Website/orw3_updateProfile/Page_Coding.ID - Dashboard/input_New Password_password""), ""Gz08DaJU9NXyFmL46LbsMw=="")",Chrome 117.0.0.0,,,2023-09-18 18:48:29,2023-09-18 18:48:29,0.432s,PASSED
"setEncryptedText(findTestObject(""Object Repository/or1_Website/orw3_updateProfile/Page_Coding.ID - Dashboard/input_Confirmation Password_password_confirmation""), ""Gz08DaJU9NXyFmL46LbsMw=="")",Chrome 117.0.0.0,,,2023-09-18 18:48:29,2023-09-18 18:48:30,0.441s,PASSED
"click(findTestObject(""Object Repository/or1_Website/orw3_updateProfile/Page_Coding.ID - Dashboard/button_Save Changes""))",Chrome 117.0.0.0,,,2023-09-18 18:48:30,2023-09-18 18:48:31,0.812s,PASSED
"verifyElementVisible(findTestObject(""Object Repository/or1_Website/orw3_updateProfile/Page_Coding.ID - Dashboard/button_OK""))",Chrome 117.0.0.0,,,2023-09-18 18:48:31,2023-09-18 18:49:02,31.589s,PASSED
"click(findTestObject(""Object Repository/or1_Website/orw3_updateProfile/Page_Coding.ID - Dashboard/button_OK""))",Chrome 117.0.0.0,,,2023-09-18 18:49:02,2023-09-18 18:49:34,31.605s,PASSED
closeBrowser(),Chrome 117.0.0.0,,,2023-09-18 18:49:34,2023-09-18 18:49:35,0.750s,PASSED
,,,,,,,
Test Cases/tc1_Website/w3_changeProfile/we1_Edit profile name dengan symbol,Chrome 117.0.0.0,,,2023-09-18 18:49:35,2023-09-18 18:50:31,56.803s,PASSED
auth.Authenticate.performLoginProfile(),Chrome 117.0.0.0,,,2023-09-18 18:49:35,2023-09-18 18:49:51,15.621s,PASSED
delay(5),Chrome 117.0.0.0,,,2023-09-18 18:49:51,2023-09-18 18:49:56,5.010s,PASSED
"click(findTestObject(""Object Repository/or1_Website/orw3_updateProfile/Page_Coding.ID - Dashboard/a_Edit Profile""))",Chrome 117.0.0.0,,,2023-09-18 18:49:56,2023-09-18 18:49:56,0.793s,PASSED
"navigateToUrl(""https://demo-app.online/dashboard/profile/edit"")",Chrome 117.0.0.0,,,2023-09-18 18:49:56,2023-09-18 18:49:57,0.280s,PASSED
"setText(findTestObject(""Object Repository/or1_Website/orw3_updateProfile/Page_Coding.ID - Dashboard/input_Fullname_name""), ""reza_wahyu_adinata"")",Chrome 117.0.0.0,,,2023-09-18 18:49:57,2023-09-18 18:49:58,1.562s,PASSED
"click(findTestObject(""Object Repository/or1_Website/orw3_updateProfile/Page_Coding.ID - Dashboard/button_Save Changes""))",Chrome 117.0.0.0,,,2023-09-18 18:49:58,2023-09-18 18:49:59,0.763s,PASSED
"click(findTestObject(""Object Repository/or1_Website/orw3_updateProfile/Page_Coding.ID - Dashboard/button_OK""))",Chrome 117.0.0.0,,,2023-09-18 18:49:59,2023-09-18 18:50:31,31.560s,PASSED
closeBrowser(),Chrome 117.0.0.0,,,2023-09-18 18:50:31,2023-09-18 18:50:31,0.821s,PASSED
,,,,,,,
Test Cases/tc1_Website/w3_changeProfile/we2_Mengedit profile full name menggunakan angka,Chrome 117.0.0.0,,,2023-09-18 18:50:31,2023-09-18 18:51:39,1m - 7.879s,PASSED
auth.Authenticate.performLoginProfile(),Chrome 117.0.0.0,,,2023-09-18 18:50:32,2023-09-18 18:50:58,26.432s,PASSED
delay(5),Chrome 117.0.0.0,,,2023-09-18 18:50:58,2023-09-18 18:51:03,5.018s,PASSED
"click(findTestObject(""Object Repository/or1_Website/orw3_updateProfile/Page_Coding.ID - Dashboard/a_Edit Profile""))",Chrome 117.0.0.0,,,2023-09-18 18:51:03,2023-09-18 18:51:05,1.295s,PASSED
"navigateToUrl(""https://demo-app.online/dashboard/profile/edit"")",Chrome 117.0.0.0,,,2023-09-18 18:51:05,2023-09-18 18:51:05,0.801s,PASSED
"setText(findTestObject(""Object Repository/or1_Website/orw3_updateProfile/Page_Coding.ID - Dashboard/input_Fullname_name""), ""1234567890"")",Chrome 117.0.0.0,,,2023-09-18 18:51:05,2023-09-18 18:51:07,1.161s,PASSED
"click(findTestObject(""Object Repository/or1_Website/orw3_updateProfile/Page_Coding.ID - Dashboard/button_Save Changes""))",Chrome 117.0.0.0,,,2023-09-18 18:51:07,2023-09-18 18:51:08,1.150s,PASSED
"click(findTestObject(""Object Repository/or1_Website/orw3_updateProfile/Page_Coding.ID - Dashboard/button_OK""))",Chrome 117.0.0.0,,,2023-09-18 18:51:08,2023-09-18 18:51:39,31.520s,PASSED
,,,,,,,
Test Cases/tc1_Website/w3_changeProfile/we3_Mengedit nama dengan lebih dari 30 character,Chrome 117.0.0.0,,,2023-09-18 18:51:39,2023-09-18 18:52:48,1m - 8.342s,PASSED
auth.Authenticate.performLoginProfile(),Chrome 117.0.0.0,,,2023-09-18 18:51:40,2023-09-18 18:52:37,56.524s,PASSED
delay(5),Chrome 117.0.0.0,,,2023-09-18 18:52:37,2023-09-18 18:52:42,5.107s,PASSED
"click(findTestObject(""Object Repository/or1_Website/orw3_updateProfile/Page_Coding.ID - Dashboard/a_Edit Profile""))",Chrome 117.0.0.0,,,2023-09-18 18:52:42,2023-09-18 18:52:43,0.933s,PASSED
"navigateToUrl(""https://demo-app.online/dashboard/profile/edit"")",Chrome 117.0.0.0,,,2023-09-18 18:52:43,2023-09-18 18:52:43,0.335s,PASSED
"setText(findTestObject(""Object Repository/or1_Website/orw3_updateProfile/Page_Coding.ID - Dashboard/input_Fullname_name""), ""Muhammad reza wahyu adinata Alfaridzi"")",Chrome 117.0.0.0,,,2023-09-18 18:52:43,2023-09-18 18:52:44,1.179s,PASSED
"click(findTestObject(""Object Repository/or1_Website/orw3_updateProfile/Page_Coding.ID - Dashboard/button_Save Changes""))",Chrome 117.0.0.0,,,2023-09-18 18:52:44,2023-09-18 18:52:45,0.932s,PASSED
"click(findTestObject(""Object Repository/or1_Website/orw3_updateProfile/Page_Coding.ID - Dashboard/strong_The name may not be greater than 30 _ae5806""))",Chrome 117.0.0.0,,,2023-09-18 18:52:45,2023-09-18 18:52:46,0.758s,PASSED
"verifyElementVisible(findTestObject(""Object Repository/or1_Website/orw3_updateProfile/Page_Coding.ID - Dashboard/strong_The name may not be greater than 30 _ae5806""), STOP_ON_FAILURE)",Chrome 117.0.0.0,,,2023-09-18 18:52:46,2023-09-18 18:52:46,0.421s,PASSED
"verifyElementText(findTestObject(""Object Repository/or1_Website/orw3_updateProfile/Page_Coding.ID - Dashboard/strong_The name may not be greater than 30 _ae5806""), ""The name may not be greater than 30 characters."")",Chrome 117.0.0.0,,,2023-09-18 18:52:46,2023-09-18 18:52:47,0.361s,PASSED
closeBrowser(),Chrome 117.0.0.0,,,2023-09-18 18:52:47,2023-09-18 18:52:48,0.779s,PASSED
,,,,,,,
Test Cases/tc1_Website/w3_changeProfile/we4_Mengedit nomor telephone dengan valid,Chrome 117.0.0.0,,,2023-09-18 18:52:48,2023-09-18 18:54:12,1m - 24.003s,PASSED
auth.Authenticate.performLoginProfile(),Chrome 117.0.0.0,,,2023-09-18 18:52:48,2023-09-18 18:52:59,10.776s,PASSED
delay(5),Chrome 117.0.0.0,,,2023-09-18 18:52:59,2023-09-18 18:53:04,5.016s,PASSED
"click(findTestObject(""Object Repository/or1_Website/orw3_updateProfile/Page_Coding.ID - Dashboard/a_Edit Profile""))",Chrome 117.0.0.0,,,2023-09-18 18:53:04,2023-09-18 18:53:05,1.041s,PASSED
"navigateToUrl(""https://demo-app.online/dashboard/profile/edit"")",Chrome 117.0.0.0,,,2023-09-18 18:53:05,2023-09-18 18:53:05,0.537s,PASSED
"setText(findTestObject(""Object Repository/or1_Website/orw3_updateProfile/Page_Coding.ID - Dashboard/input_Phone_whatsapp""), ""081385484594"")",Chrome 117.0.0.0,,,2023-09-18 18:53:05,2023-09-18 18:53:07,1.166s,PASSED
"click(findTestObject(""Object Repository/or1_Website/orw3_updateProfile/Page_Coding.ID - Dashboard/button_Save Changes""))",Chrome 117.0.0.0,,,2023-09-18 18:53:07,2023-09-18 18:53:08,1.114s,PASSED
"verifyElementVisible(findTestObject(""Object Repository/or1_Website/orw3_updateProfile/Page_Coding.ID - Dashboard/button_OK""))",Chrome 117.0.0.0,,,2023-09-18 18:53:08,2023-09-18 18:53:39,31.660s,PASSED
"click(findTestObject(""Object Repository/or1_Website/orw3_updateProfile/Page_Coding.ID - Dashboard/button_OK""))",Chrome 117.0.0.0,,,2023-09-18 18:53:39,2023-09-18 18:54:11,31.484s,PASSED
closeBrowser(),Chrome 117.0.0.0,,,2023-09-18 18:54:11,2023-09-18 18:54:12,0.791s,PASSED
,,,,,,,
Test Cases/tc1_Website/w3_changeProfile/we5_Mengedit nomor telephone lebih dari 12 angka,Chrome 117.0.0.0,,,2023-09-18 18:54:12,2023-09-18 18:55:38,1m - 26.775s,PASSED
auth.Authenticate.performLoginProfile(),Chrome 117.0.0.0,,,2023-09-18 18:54:12,2023-09-18 18:54:25,12.885s,PASSED
delay(5),Chrome 117.0.0.0,,,2023-09-18 18:54:25,2023-09-18 18:54:30,5.011s,PASSED
"click(findTestObject(""Object Repository/or1_Website/orw3_updateProfile/Page_Coding.ID - Dashboard/a_Edit Profile""))",Chrome 117.0.0.0,,,2023-09-18 18:54:30,2023-09-18 18:54:31,1.191s,PASSED
"navigateToUrl(""https://demo-app.online/dashboard/profile/edit"")",Chrome 117.0.0.0,,,2023-09-18 18:54:31,2023-09-18 18:54:32,0.362s,PASSED
"setText(findTestObject(""Object Repository/or1_Website/orw3_updateProfile/Page_Coding.ID - Dashboard/input_Phone_whatsapp""), ""081385484594123"")",Chrome 117.0.0.0,,,2023-09-18 18:54:32,2023-09-18 18:54:33,1.142s,PASSED
"click(findTestObject(""Object Repository/or1_Website/orw3_updateProfile/Page_Coding.ID - Dashboard/button_Save Changes""))",Chrome 117.0.0.0,,,2023-09-18 18:54:33,2023-09-18 18:54:34,1.173s,PASSED
"verifyElementVisible(findTestObject(""Object Repository/or1_Website/orw3_updateProfile/Page_Coding.ID - Dashboard/strong_The whatsapp must be between 10 and _22356d""))",Chrome 117.0.0.0,,,2023-09-18 18:54:34,2023-09-18 18:55:06,32.058s,PASSED
"verifyElementText(findTestObject(""Object Repository/or1_Website/orw3_updateProfile/Page_Coding.ID - Dashboard/strong_The whatsapp must be between 10 and _22356d""), ""The whatsapp must be between 10 and 12 digits."")",Chrome 117.0.0.0,,,2023-09-18 18:55:06,2023-09-18 18:55:38,31.562s,PASSED
closeBrowser(),Chrome 117.0.0.0,,,2023-09-18 18:55:38,2023-09-18 18:55:38,0.747s,PASSED
,,,,,,,
Test Cases/tc1_Website/w3_changeProfile/we6_Mengedit nomor telephone dengan panjang huruf yang valid,Chrome 117.0.0.0,,,2023-09-18 18:55:38,2023-09-18 18:56:06,27.441s,PASSED
auth.Authenticate.performLoginProfile(),Chrome 117.0.0.0,,,2023-09-18 18:55:39,2023-09-18 18:55:55,16.017s,PASSED
delay(5),Chrome 117.0.0.0,,,2023-09-18 18:55:55,2023-09-18 18:56:00,5.011s,PASSED
"click(findTestObject(""Object Repository/or1_Website/orw3_updateProfile/Page_Coding.ID - Dashboard/a_Edit Profile""))",Chrome 117.0.0.0,,,2023-09-18 18:56:00,2023-09-18 18:56:01,0.654s,PASSED
"navigateToUrl(""https://demo-app.online/dashboard/profile/edit"")",Chrome 117.0.0.0,,,2023-09-18 18:56:01,2023-09-18 18:56:01,0.271s,PASSED
"setText(findTestObject(""Object Repository/or1_Website/orw3_updateProfile/Page_Coding.ID - Dashboard/input_Phone_whatsapp""), ""nomor saya tiga"")",Chrome 117.0.0.0,,,2023-09-18 18:56:01,2023-09-18 18:56:02,1.652s,PASSED
"click(findTestObject(""Object Repository/or1_Website/orw3_updateProfile/Page_Coding.ID - Dashboard/button_Save Changes""))",Chrome 117.0.0.0,,,2023-09-18 18:56:02,2023-09-18 18:56:04,1.254s,PASSED
"verifyElementVisible(findTestObject(""Object Repository/or1_Website/orw3_updateProfile/Page_Coding.ID - Dashboard/strong_The whatsapp must be a number""))",Chrome 117.0.0.0,,,2023-09-18 18:56:04,2023-09-18 18:56:04,0.667s,PASSED
"verifyElementText(findTestObject(""Object Repository/or1_Website/orw3_updateProfile/Page_Coding.ID - Dashboard/strong_The whatsapp must be a number""), ""The whatsapp must be a number."")",Chrome 117.0.0.0,,,2023-09-18 18:56:04,2023-09-18 18:56:05,0.475s,PASSED
closeBrowser(),Chrome 117.0.0.0,,,2023-09-18 18:56:05,2023-09-18 18:56:06,0.962s,PASSED
,,,,,,,
Test Cases/tc1_Website/w3_changeProfile/we7_Mengedit birthday yang tidak tersedia dalam menu date,Chrome 117.0.0.0,,,2023-09-18 18:56:06,2023-09-18 18:57:00,54.044s,PASSED
auth.Authenticate.performLoginProfile(),Chrome 117.0.0.0,,,2023-09-18 18:56:06,2023-09-18 18:56:19,12.657s,PASSED
delay(5),Chrome 117.0.0.0,,,2023-09-18 18:56:19,2023-09-18 18:56:24,5.003s,PASSED
"click(findTestObject(""Object Repository/or1_Website/orw3_updateProfile/Page_Coding.ID - Dashboard/a_Edit Profile""))",Chrome 117.0.0.0,,,2023-09-18 18:56:24,2023-09-18 18:56:25,0.704s,PASSED
"navigateToUrl(""https://demo-app.online/dashboard/profile/edit"")",Chrome 117.0.0.0,,,2023-09-18 18:56:25,2023-09-18 18:56:25,0.276s,PASSED
"setText(findTestObject(""Object Repository/or1_Website/orw3_updateProfile/Page_Coding.ID - Dashboard/input_BirthDay_birth_date""), ""03-01-1000"")",Chrome 117.0.0.0,,,2023-09-18 18:56:25,2023-09-18 18:56:27,1.846s,PASSED
"click(findTestObject(""Object Repository/or1_Website/orw3_updateProfile/Page_Coding.ID - Dashboard/button_Save Changes""))",Chrome 117.0.0.0,,,2023-09-18 18:56:27,2023-09-18 18:56:28,0.897s,PASSED
"click(findTestObject(""Object Repository/or1_Website/orw3_updateProfile/Page_Coding.ID - Dashboard/button_OK""))",Chrome 117.0.0.0,,,2023-09-18 18:56:28,2023-09-18 18:56:59,31.525s,PASSED
closeBrowser(),Chrome 117.0.0.0,,,2023-09-18 18:56:59,2023-09-18 18:57:00,0.726s,PASSED
,,,,,,,
Test Cases/tc1_Website/w3_changeProfile/we8_Mengedit Birthday dengan memilih tahun kurang dari 6 tahun,Chrome 117.0.0.0,,,2023-09-18 18:57:00,2023-09-18 18:57:55,55.366s,PASSED
auth.Authenticate.performLoginProfile(),Chrome 117.0.0.0,,,2023-09-18 18:57:00,2023-09-18 18:57:13,13.131s,PASSED
delay(5),Chrome 117.0.0.0,,,2023-09-18 18:57:13,2023-09-18 18:57:18,5.015s,PASSED
"click(findTestObject(""Object Repository/or1_Website/orw3_updateProfile/Page_Coding.ID - Dashboard/a_Edit Profile""))",Chrome 117.0.0.0,,,2023-09-18 18:57:18,2023-09-18 18:57:20,1.470s,PASSED
"navigateToUrl(""https://demo-app.online/dashboard/profile/edit"")",Chrome 117.0.0.0,,,2023-09-18 18:57:20,2023-09-18 18:57:20,0.404s,PASSED
"setText(findTestObject(""Object Repository/or1_Website/orw3_updateProfile/Page_Coding.ID - Dashboard/input_BirthDay_birth_date""), ""03-01-2021"")",Chrome 117.0.0.0,,,2023-09-18 18:57:20,2023-09-18 18:57:22,1.319s,PASSED
"click(findTestObject(""Object Repository/or1_Website/orw3_updateProfile/Page_Coding.ID - Dashboard/button_Save Changes""))",Chrome 117.0.0.0,,,2023-09-18 18:57:22,2023-09-18 18:57:23,1.198s,PASSED
"click(findTestObject(""Object Repository/or1_Website/orw3_updateProfile/Page_Coding.ID - Dashboard/button_OK""))",Chrome 117.0.0.0,,,2023-09-18 18:57:23,2023-09-18 18:57:54,31.652s,PASSED
closeBrowser(),Chrome 117.0.0.0,,,2023-09-18 18:57:54,2023-09-18 18:57:55,0.776s,PASSED
,,,,,,,
Test Cases/tc1_Website/w3_changeProfile/we9_Mengedit password dengan password old yang tidak valid,Chrome 117.0.0.0,,,2023-09-18 18:57:55,2023-09-18 18:58:19,23.296s,PASSED
auth.Authenticate.performLoginProfile(),Chrome 117.0.0.0,,,2023-09-18 18:57:56,2023-09-18 18:58:08,12.480s,PASSED
delay(5),Chrome 117.0.0.0,,,2023-09-18 18:58:08,2023-09-18 18:58:13,5.014s,PASSED
"click(findTestObject(""Object Repository/or1_Website/orw3_updateProfile/Page_Coding.ID - Dashboard/a_Change Password""))",Chrome 117.0.0.0,,,2023-09-18 18:58:13,2023-09-18 18:58:14,0.631s,PASSED
"navigateToUrl(""https://demo-app.online/dashboard/profile/change_password"")",Chrome 117.0.0.0,,,2023-09-18 18:58:14,2023-09-18 18:58:14,0.237s,PASSED
"setEncryptedText(findTestObject(""Object Repository/or1_Website/orw3_updateProfile/Page_Coding.ID - Dashboard/input_Old Password_current_password""), ""Gz08DaJU9NXbAB8Pb2/rbg=="")",Chrome 117.0.0.0,,,2023-09-18 18:58:14,2023-09-18 18:58:15,0.818s,PASSED
"setEncryptedText(findTestObject(""Object Repository/or1_Website/orw3_updateProfile/Page_Coding.ID - Dashboard/input_New Password_password""), ""Gz08DaJU9NXyFmL46LbsMw=="")",Chrome 117.0.0.0,,,2023-09-18 18:58:15,2023-09-18 18:58:16,0.427s,PASSED
"setEncryptedText(findTestObject(""Object Repository/or1_Website/orw3_updateProfile/Page_Coding.ID - Dashboard/input_Confirmation Password_password_confirmation""), ""Gz08DaJU9NXyFmL46LbsMw=="")",Chrome 117.0.0.0,,,2023-09-18 18:58:16,2023-09-18 18:58:16,0.450s,PASSED
"click(findTestObject(""Object Repository/or1_Website/orw3_updateProfile/Page_Coding.ID - Dashboard/button_Save Changes""))",Chrome 117.0.0.0,,,2023-09-18 18:58:16,2023-09-18 18:58:17,0.804s,PASSED
"verifyElementVisible(findTestObject(""Object Repository/or1_Website/orw3_updateProfile/Page_Coding.ID - Dashboard/small_The password is incorrect""))",Chrome 117.0.0.0,,,2023-09-18 18:58:17,2023-09-18 18:58:17,0.715s,PASSED
"verifyElementText(findTestObject(""Object Repository/or1_Website/orw3_updateProfile/Page_Coding.ID - Dashboard/small_The password is incorrect""), ""The password is incorrect."")",Chrome 117.0.0.0,,,2023-09-18 18:58:17,2023-09-18 18:58:18,0.346s,PASSED
closeBrowser(),Chrome 117.0.0.0,,,2023-09-18 18:58:18,2023-09-18 18:58:19,0.742s,PASSED
