{
  "log" : {
    "version" : "1.2",
    "pages" : [ ],
    "entries" : [ {
      "startedDateTime" : "2023-09-18T01:43:17.060Z",
      "request" : {
        "method" : "POST",
        "url" : "https://demo-app.online/api/login",
        "httpVersion" : "",
        "cookies" : [ ],
        "headers" : [ {
          "name" : "Content-Type",
          "value" : "multipart/form-data"
        } ],
        "queryString" : [ ],
        "postData" : {
          "mimeType" : "multipart/form-data",
          "text" : "--nAoqzfAowlJiq5A86SRkSsrW77DvTgWY7XJif7u\r\nContent-Disposition: form-data; name=\"email\"\r\nContent-Type: text/plain; charset=ISO-8859-1\r\nContent-Transfer-Encoding: 8bit\r\n\r\nayameruuu@gmail.com\r\n--nAoqzfAowlJiq5A86SRkSsrW77DvTgWY7XJif7u\r\nContent-Disposition: form-data; name=\"password\"\r\nContent-Type: text/plain; charset=ISO-8859-1\r\nContent-Transfer-Encoding: 8bit\r\n\r\nrezawahyu123\r\n--nAoqzfAowlJiq5A86SRkSsrW77DvTgWY7XJif7u--\r\n",
          "comment" : ""
        },
        "headersSize" : 0,
        "bodySize" : 0,
        "comment" : ""
      },
      "response" : {
        "status" : 200,
        "statusText" : "",
        "httpVersion" : "",
        "cookies" : [ ],
        "headers" : [ {
          "name" : "Keep-Alive",
          "value" : "timeout=5, max=100"
        }, {
          "name" : "access-control-allow-origin",
          "value" : "*"
        }, {
          "name" : "date",
          "value" : "Mon, 18 Sep 2023 01:43:16 GMT"
        }, {
          "name" : "server",
          "value" : "LiteSpeed"
        }, {
          "name" : "x-ratelimit-limit",
          "value" : "60"
        }, {
          "name" : "vary",
          "value" : "Accept-Encoding"
        }, {
          "name" : "Connection",
          "value" : "Keep-Alive"
        }, {
          "name" : "x-powered-by",
          "value" : "PHP/7.4.33"
        }, {
          "name" : "content-type",
          "value" : "application/json"
        }, {
          "name" : "#status#",
          "value" : "HTTP/1.1 200 OK"
        }, {
          "name" : "cache-control",
          "value" : "no-cache, private"
        }, {
          "name" : "x-ratelimit-remaining",
          "value" : "49"
        } ],
        "content" : {
          "size" : 1232,
          "mimeType" : "application/json",
          "text" : "{\"success\":{\"member_name\":\"Basic\",\"member_id\":1,\"token\":\"eyJ0eXAiOiJKV1QiLCJhbGciOiJSUzI1NiJ9.eyJhdWQiOiIzIiwianRpIjoiZjRhYjhjZjhhZTBkMjkzOWViZmI1OTkzNDE2NTI5YzYzMzY1YWJmMGU5MjRiZTgwMTI0MTllZGNmYjIxNmVlMWU2OGJkNjA4MTljYjViZjUiLCJpYXQiOjE2OTUwMDEzOTYuODQ3NjY3LCJuYmYiOjE2OTUwMDEzOTYuODQ3NjcsImV4cCI6MTcyNjYyMzc5Ni44NDY1Niwic3ViIjoiOTUwIiwic2NvcGVzIjpbXX0.nuOoVpkjOketpDuaJVF7n62gMuowQiUjvuljuTpmQ62a331KvVdxjaso2rcf4khxPjosQeXZwN83yWPpCsktSrB-4lWsvwli6P9Toe4F42ouumzETrBrhUh42bh4qhjWseGFVnfQRPj9e44iY0ogx6w-taLP4GXmNt_lyFpEAuzNnQ6vldn_fz9Iz8bmO3KOMeBe2LNhT8PoY502sylqb7iuO4958C7K5gKm-A8zs-PToJICcbSZbXFRrroQaOU1wCCWzGaIgxdR5QmbKpxwgl62UGEQhgQYKO2-yn5bOuV4TVkZBePPJqOGh8_uZdWMoCfaz24k9JzVPIhb7sFI5rwWI4VR7EaugSunDBzvE3mQiA4O2TzTPV2IwF2qVCxrjocriXdllBpNaMk4VYNK-XADv8YFt-iQqdPBFsfqPYWRJ3Y3fgDksGKi8tLoE5eePJMGzJKZheXQCj8GXHBQ8QwhzcpBt-O00whiDcieFSKfhQHwrkitcjDUGsJg6pdikPemDbvgYsAqKCLasWRI6Y6GqBRSWOhPgf5Da2FANWBDwmwgxnrpL19-PUYYUPqjBSJtH0KNL8vBSdlt0sQET1LftsB61N4UCI29ZFapU1x1MFL7_mLeeltQmZgRHXmgy0dUWg6IXgl5VUuYgyk1ICYhHVr2HUsut5P3Vzq0T8o\",\"name\":\"Nur Suhaedi\",\"email\":\"ayameruuu@gmail.com\",\"birth_date\":\"2000-08-21\",\"whatsapp\":\"81385484599\",\"referral\":\"K1J46\",\"points\":\"0\",\"bio\":null,\"position\":null,\"photo\":null,\"isPartner\":false}}",
          "comment" : ""
        },
        "redirectURL" : "",
        "headersSize" : 265,
        "bodySize" : -1,
        "comment" : ""
      },
      "cache" : { },
      "timings" : {
        "comment" : "",
        "ssl" : -1,
        "connect" : 0,
        "dns" : -1,
        "blocked" : -1,
        "send" : 0,
        "wait" : 0,
        "receive" : 0
      },
      "comment" : "",
      "_katalonRequestInformation" : {
        "name" : "10",
        "testObjectId" : "Object Repository/or3_API/ora1_login/a1-login",
        "harId" : "f89c5c65-0ba4-4b31-906f-70e50c8573c9",
        "reportFolder" : null
      },
      "time" : 0
    } ],
    "comment" : ""
  }
}