{
  "log" : {
    "version" : "1.2",
    "pages" : [ ],
    "entries" : [ {
      "startedDateTime" : "2023-09-18T01:43:20.637Z",
      "request" : {
        "method" : "POST",
        "url" : "https://demo-app.online/api/login",
        "httpVersion" : "",
        "cookies" : [ ],
        "headers" : [ {
          "name" : "Content-Type",
          "value" : "multipart/form-data"
        } ],
        "queryString" : [ ],
        "postData" : {
          "mimeType" : "multipart/form-data",
          "text" : "--vhG7BqW_e4JHvNunHkuN4SBX9E7vP4K1JU8Fg\r\nContent-Disposition: form-data; name=\"email\"\r\nContent-Type: text/plain; charset=ISO-8859-1\r\nContent-Transfer-Encoding: 8bit\r\n\r\nadinatarezawahyu@gmail.com\r\n--vhG7BqW_e4JHvNunHkuN4SBX9E7vP4K1JU8Fg\r\nContent-Disposition: form-data; name=\"password\"\r\nContent-Type: text/plain; charset=ISO-8859-1\r\nContent-Transfer-Encoding: 8bit\r\n\r\nrezawahyu123\r\n--vhG7BqW_e4JHvNunHkuN4SBX9E7vP4K1JU8Fg--\r\n",
          "comment" : ""
        },
        "headersSize" : 0,
        "bodySize" : 0,
        "comment" : ""
      },
      "response" : {
        "status" : 200,
        "statusText" : "",
        "httpVersion" : "",
        "cookies" : [ ],
        "headers" : [ {
          "name" : "Keep-Alive",
          "value" : "timeout=5, max=100"
        }, {
          "name" : "access-control-allow-origin",
          "value" : "*"
        }, {
          "name" : "date",
          "value" : "Mon, 18 Sep 2023 01:43:20 GMT"
        }, {
          "name" : "server",
          "value" : "LiteSpeed"
        }, {
          "name" : "x-ratelimit-limit",
          "value" : "60"
        }, {
          "name" : "vary",
          "value" : "Accept-Encoding"
        }, {
          "name" : "Connection",
          "value" : "Keep-Alive"
        }, {
          "name" : "x-powered-by",
          "value" : "PHP/7.4.33"
        }, {
          "name" : "content-type",
          "value" : "application/json"
        }, {
          "name" : "#status#",
          "value" : "HTTP/1.1 200 OK"
        }, {
          "name" : "cache-control",
          "value" : "no-cache, private"
        }, {
          "name" : "x-ratelimit-remaining",
          "value" : "45"
        } ],
        "content" : {
          "size" : 1356,
          "mimeType" : "application/json",
          "text" : "{\"success\":{\"member_name\":\"Basic\",\"member_id\":1,\"token\":\"eyJ0eXAiOiJKV1QiLCJhbGciOiJSUzI1NiJ9.eyJhdWQiOiIzIiwianRpIjoiMWQ2ODhhMzEwNjI2YmE2OTE2ZTc1NmExNzg4M2MxNzczZjU5NTJjMWZhMzlkNzUxNWQ2N2VjOWJkMzg3OTM0YjQ4MDA2ZDE2MWY3ZTZiNzQiLCJpYXQiOjE2OTUwMDE0MDAuNDI2ODAyLCJuYmYiOjE2OTUwMDE0MDAuNDI2ODA0LCJleHAiOjE3MjY2MjM4MDAuNDI1ODM5LCJzdWIiOiI5MDYiLCJzY29wZXMiOltdfQ.GN4Q73G8K6YE5g0ectmMUP4I8rBXSEA_p2xNLkvVPUvlTn2kT8CEY-4J9aL0uM1MddEWNrd-MR_-zCa5bAu03azSRg5t1pvlFa_rhYIOn7mqwiM940_zyzQKIfGfhej9y8agHWoLBvDFXsUqfh2OwMDMXn87JKoJjOi11Ne4JnyAfXqBsAg1rR5SfAMitHsL0_sWm6yxG-WdXA_3gNrpIt8CmElf4hPJd3hlPCpcLYJ_5LCSGp3DbPrsvn-eXbUXqRS8puGb9ACB0riHZbJH7KYmyn0CZEnAdtEnCIkwyRpbstPg5N68fWBx-mAQAQitUtOzsh6PvI-LC-Oa7-qk_HjM1BWKAun1Xb8sz3estblFopaojyangjUFQCpWBWzx6lqjh9HVNhYuRaNfMxRAXvrNVfahOs9HAu4mZnOL8S69tB9PBJIYaM6oppr9vgRKJRYc4pxvh-29ucJyTo1cB4az6jVusiadi73pH01taOPR7s7fT6mAltInKZmGgQ52cMDUNPlmv3o1_O0TWuIX8FVXtsx0BE2YAue0Tayq8eGIgCYcGQMR0HrP2Q0HNV0W7EI_725N5gxwONhfAmxceW38bYxCC91BV0w_WTRtwp2ytpjQYMIMwZ2ktQEeszNshfoZ4QHHHasiD69xHP7JOqaEwyCFBkBca4ScG5GA1dY\",\"name\":\"Reza Wahyu Adinata\",\"email\":\"adinatarezawahyu@gmail.com\",\"birth_date\":\"1923-12-31\",\"whatsapp\":\"081385484593\",\"referral\":\"SFH3G\",\"points\":\"0\",\"bio\":null,\"position\":null,\"photo\":\"https:\\/\\/storage.googleapis.com\\/codingid-storage-bucket\\/storage\\/uploads\\/avatar\\/1694702212gambar_10.jpg\",\"isPartner\":false}}",
          "comment" : ""
        },
        "redirectURL" : "",
        "headersSize" : 265,
        "bodySize" : -1,
        "comment" : ""
      },
      "cache" : { },
      "timings" : {
        "comment" : "",
        "ssl" : -1,
        "connect" : 1,
        "dns" : -1,
        "blocked" : -1,
        "send" : 0,
        "wait" : 0,
        "receive" : 0
      },
      "comment" : "",
      "_katalonRequestInformation" : {
        "name" : "14",
        "testObjectId" : "Object Repository/or3_API/ora1_login/a1-login",
        "harId" : "1c3a078c-3964-4a9d-bb22-968d6c985cb0",
        "reportFolder" : null
      },
      "time" : 1
    } ],
    "comment" : ""
  }
}