Suite/Test/Step Name,Browser,Description,Tag,Start time,End time,Duration,Status
ts7_mobile_changeProfile,,,,2023-09-20 12:08:43,2023-09-20 12:35:13,26m - 30.238s,FAILED
,,,,,,,
Test Cases/tc2_Mobile/m3_changeProfile/mp10_Mengedit nomor telephone kurang dari 9,,,,2023-09-20 12:08:43,2023-09-20 12:09:56,1m - 12.409s,FAILED
auth.Authenticate.performLoginProfileMobile(),,,,2023-09-20 12:08:44,2023-09-20 12:09:23,38.917s,PASSED
"tap(findTestObject(""Object Repository/or2_Mobile/orm3_updateProfile/Home/Button - Profile""), 0)",,,,2023-09-20 12:09:23,2023-09-20 12:09:56,32.944s,FAILED
,,,,,,,
Test Cases/tc2_Mobile/m3_changeProfile/mp11_Mengedit nomor telephone lebih dari 13,,,,2023-09-20 12:09:56,2023-09-20 12:11:47,1m - 50.959s,PASSED
auth.Authenticate.performLoginProfileMobile(),,,,2023-09-20 12:09:56,2023-09-20 12:10:21,25.486s,PASSED
"tap(findTestObject(""Object Repository/or2_Mobile/orm3_updateProfile/Home/Button - Profile""), 0)",,,,2023-09-20 12:10:22,2023-09-20 12:10:52,30.262s,PASSED
"tap(findTestObject(""Object Repository/or2_Mobile/orm3_updateProfile/Home/Button - Settings""), 0)",,,,2023-09-20 12:10:52,2023-09-20 12:10:53,1.000s,PASSED
"tap(findTestObject(""Object Repository/or2_Mobile/orm3_updateProfile/Home/Button - Edit Profile""), 0)",,,,2023-09-20 12:10:53,2023-09-20 12:10:54,1.301s,PASSED
"tap(findTestObject(""Object Repository/or2_Mobile/orm3_updateProfile/EditProfile/Phone/Input - Phone""), 0)",,,,2023-09-20 12:10:54,2023-09-20 12:10:57,2.870s,PASSED
"sendKeys(findTestObject(""Object Repository/or2_Mobile/orm3_updateProfile/EditProfile/Phone/Input - Phone""), ""081385484594321"", STOP_ON_FAILURE)",,,,2023-09-20 12:10:57,2023-09-20 12:10:57,0.365s,PASSED
pressBack(),,,,2023-09-20 12:10:57,2023-09-20 12:10:59,1.294s,PASSED
"delay(5, STOP_ON_FAILURE)",,,,2023-09-20 12:10:59,2023-09-20 12:11:04,5.041s,PASSED
pressBack(),,,,2023-09-20 12:11:04,2023-09-20 12:11:04,0.190s,PASSED
"delay(5, STOP_ON_FAILURE)",,,,2023-09-20 12:11:04,2023-09-20 12:11:09,5.007s,PASSED
pressBack(),,,,2023-09-20 12:11:09,2023-09-20 12:11:09,0.563s,PASSED
"delay(5, STOP_ON_FAILURE)",,,,2023-09-20 12:11:09,2023-09-20 12:11:14,5.009s,PASSED
auth.Authenticate.performLogOutProfileMobile(),,,,2023-09-20 12:11:14,2023-09-20 12:11:47,32.138s,PASSED
,,,,,,,
Test Cases/tc2_Mobile/m3_changeProfile/mp12_Mengedit date lahir menggunakan data yang valid,,,,2023-09-20 12:11:47,2023-09-20 12:13:27,1m - 40.697s,PASSED
auth.Authenticate.performLoginProfileMobile(),,,,2023-09-20 12:11:47,2023-09-20 12:12:07,20.085s,PASSED
"tap(findTestObject(""Object Repository/or2_Mobile/orm3_updateProfile/Home/Button - Profile""), 0)",,,,2023-09-20 12:12:07,2023-09-20 12:12:37,30.250s,PASSED
"tap(findTestObject(""Object Repository/or2_Mobile/orm3_updateProfile/Home/Button - Settings""), 0)",,,,2023-09-20 12:12:37,2023-09-20 12:12:39,1.774s,PASSED
"tap(findTestObject(""Object Repository/or2_Mobile/orm3_updateProfile/Home/Button - Edit Profile""), 0)",,,,2023-09-20 12:12:39,2023-09-20 12:12:40,0.539s,PASSED
"tap(findTestObject(""Object Repository/or2_Mobile/orm3_updateProfile/EditProfile/Date/Input - BirthDate""), 0)",,,,2023-09-20 12:12:40,2023-09-20 12:12:42,2.788s,PASSED
"tap(findTestObject(""Object Repository/or2_Mobile/orm3_updateProfile/EditProfile/Date/Button - Tahun (date)""), 0)",,,,2023-09-20 12:12:42,2023-09-20 12:12:43,0.858s,PASSED
"tap(findTestObject(""Object Repository/or2_Mobile/orm3_updateProfile/EditProfile/Date/Tgl - 3""), 0)",,,,2023-09-20 12:12:43,2023-09-20 12:12:44,0.909s,PASSED
"tap(findTestObject(""Object Repository/or2_Mobile/orm3_updateProfile/EditProfile/Date/Button - Ok (Date)""), 0)",,,,2023-09-20 12:12:44,2023-09-20 12:12:45,0.266s,PASSED
"tap(findTestObject(""Object Repository/or2_Mobile/orm3_updateProfile/EditProfile/Button - Save Changes""), 0)",,,,2023-09-20 12:12:45,2023-09-20 12:12:45,0.804s,PASSED
"delay(5, STOP_ON_FAILURE)",,,,2023-09-20 12:12:45,2023-09-20 12:12:50,5.005s,PASSED
"tap(findTestObject(""or2_Mobile/orm3_updateProfile/EditProfile/Button - Confimation Okay (save changes)""), 0)",,,,2023-09-20 12:12:50,2023-09-20 12:12:51,0.284s,PASSED
"delay(5, STOP_ON_FAILURE)",,,,2023-09-20 12:12:51,2023-09-20 12:12:56,5.006s,PASSED
auth.Authenticate.performLogOutProfileMobile(),,,,2023-09-20 12:12:56,2023-09-20 12:13:27,31.642s,PASSED
,,,,,,,
Test Cases/tc2_Mobile/m3_changeProfile/mp13_Mengedit date lahir secara kosong,,,,2023-09-20 12:13:27,2023-09-20 12:15:00,1m - 33.230s,PASSED
auth.Authenticate.performLoginProfileMobile(),,,,2023-09-20 12:13:28,2023-09-20 12:13:48,19.839s,PASSED
"tap(findTestObject(""Object Repository/or2_Mobile/orm3_updateProfile/Home/Button - Profile""), 0)",,,,2023-09-20 12:13:48,2023-09-20 12:14:18,30.230s,PASSED
"tap(findTestObject(""Object Repository/or2_Mobile/orm3_updateProfile/Home/Button - Settings""), 0)",,,,2023-09-20 12:14:18,2023-09-20 12:14:20,1.965s,PASSED
"tap(findTestObject(""Object Repository/or2_Mobile/orm3_updateProfile/Home/Button - Edit Profile""), 0)",,,,2023-09-20 12:14:20,2023-09-20 12:14:20,0.352s,PASSED
"tap(findTestObject(""Object Repository/or2_Mobile/orm3_updateProfile/EditProfile/Date/Input - BirthDate""), 0)",,,,2023-09-20 12:14:20,2023-09-20 12:14:21,1.353s,PASSED
"tap(findTestObject(""Object Repository/or2_Mobile/orm3_updateProfile/EditProfile/Date/Button - Cancel (Date)""), 0)",,,,2023-09-20 12:14:21,2023-09-20 12:14:23,1.637s,PASSED
"delay(5, STOP_ON_FAILURE)",,,,2023-09-20 12:14:23,2023-09-20 12:14:28,5.007s,PASSED
pressBack(),,,,2023-09-20 12:14:28,2023-09-20 12:14:28,0.202s,PASSED
auth.Authenticate.performLogOutProfileMobile(),,,,2023-09-20 12:14:28,2023-09-20 12:15:00,32.199s,PASSED
,,,,,,,
Test Cases/tc2_Mobile/m3_changeProfile/mp14_Mengganti Password dengan data yang valid,,,,2023-09-20 12:15:00,2023-09-20 12:16:48,1m - 47.365s,PASSED
auth.Authenticate.performLoginProfileMobile(),,,,2023-09-20 12:15:01,2023-09-20 12:15:21,19.804s,PASSED
"tap(findTestObject(""Object Repository/or2_Mobile/orm3_updateProfile/Home/Button - Profile""), 0)",,,,2023-09-20 12:15:21,2023-09-20 12:15:51,30.233s,PASSED
"tap(findTestObject(""Object Repository/or2_Mobile/orm3_updateProfile/Home/Button - Settings""), 0)",,,,2023-09-20 12:15:51,2023-09-20 12:15:52,1.084s,PASSED
"tap(findTestObject(""or2_Mobile/orm3_updateProfile/Home/Button - Change Password""), 0)",,,,2023-09-20 12:15:52,2023-09-20 12:15:53,1.181s,PASSED
"tap(findTestObject(""or2_Mobile/orm3_updateProfile/EditPassword/Old Password""), 0, STOP_ON_FAILURE)",,,,2023-09-20 12:15:53,2023-09-20 12:15:56,2.337s,PASSED
"sendKeys(findTestObject(""or2_Mobile/orm3_updateProfile/EditPassword/Old Password""), ""rezawahyu123"", STOP_ON_FAILURE)",,,,2023-09-20 12:15:56,2023-09-20 12:15:57,0.938s,PASSED
pressBack(),,,,2023-09-20 12:15:57,2023-09-20 12:15:57,0.855s,PASSED
"tap(findTestObject(""or2_Mobile/orm3_updateProfile/EditPassword/New Password""), 0, STOP_ON_FAILURE)",,,,2023-09-20 12:15:57,2023-09-20 12:15:59,1.975s,PASSED
"sendKeys(findTestObject(""or2_Mobile/orm3_updateProfile/EditPassword/New Password""), ""rezawahyu123"", STOP_ON_FAILURE)",,,,2023-09-20 12:15:59,2023-09-20 12:16:01,1.564s,PASSED
pressBack(),,,,2023-09-20 12:16:01,2023-09-20 12:16:02,0.820s,PASSED
"tap(findTestObject(""or2_Mobile/orm3_updateProfile/EditPassword/Confirm Password""), 0, STOP_ON_FAILURE)",,,,2023-09-20 12:16:02,2023-09-20 12:16:04,2.036s,PASSED
"sendKeys(findTestObject(""or2_Mobile/orm3_updateProfile/EditPassword/Confirm Password""), ""rezawahyu123"", STOP_ON_FAILURE)",,,,2023-09-20 12:16:04,2023-09-20 12:16:05,0.985s,PASSED
pressBack(),,,,2023-09-20 12:16:05,2023-09-20 12:16:06,0.837s,PASSED
"delay(5, STOP_ON_FAILURE)",,,,2023-09-20 12:16:06,2023-09-20 12:16:11,5.007s,PASSED
"tap(findTestObject(""Object Repository/or2_Mobile/orm3_updateProfile/EditPassword/Button - Change""), 0)",,,,2023-09-20 12:16:11,2023-09-20 12:16:11,0.434s,PASSED
pressBack(),,,,2023-09-20 12:16:11,2023-09-20 12:16:11,0.286s,PASSED
"delay(5, STOP_ON_FAILURE)",,,,2023-09-20 12:16:11,2023-09-20 12:16:16,5.004s,PASSED
auth.Authenticate.performLogOutProfileMobile(),,,,2023-09-20 12:16:16,2023-09-20 12:16:48,31.471s,PASSED
,,,,,,,
Test Cases/tc2_Mobile/m3_changeProfile/mp15_Mengganti Password dengan old password yang kosong,,,,2023-09-20 12:16:48,2023-09-20 12:18:35,1m - 47.362s,PASSED
auth.Authenticate.performLoginProfileMobile(),,,,2023-09-20 12:16:48,2023-09-20 12:17:09,21.086s,PASSED
"tap(findTestObject(""Object Repository/or2_Mobile/orm3_updateProfile/Home/Button - Profile""), 0)",,,,2023-09-20 12:17:09,2023-09-20 12:17:40,30.238s,PASSED
"tap(findTestObject(""Object Repository/or2_Mobile/orm3_updateProfile/Home/Button - Settings""), 0)",,,,2023-09-20 12:17:40,2023-09-20 12:17:41,1.750s,PASSED
"tap(findTestObject(""or2_Mobile/orm3_updateProfile/Home/Button - Change Password""), 0)",,,,2023-09-20 12:17:41,2023-09-20 12:17:42,0.807s,PASSED
"tap(findTestObject(""or2_Mobile/orm3_updateProfile/EditPassword/Old Password""), 0, STOP_ON_FAILURE)",,,,2023-09-20 12:17:42,2023-09-20 12:17:45,2.721s,PASSED
"sendKeys(findTestObject(""or2_Mobile/orm3_updateProfile/EditPassword/Old Password""), """", STOP_ON_FAILURE)",,,,2023-09-20 12:17:45,2023-09-20 12:17:45,0.407s,PASSED
pressBack(),,,,2023-09-20 12:17:45,2023-09-20 12:17:46,1.077s,PASSED
"tap(findTestObject(""or2_Mobile/orm3_updateProfile/EditPassword/New Password""), 0, STOP_ON_FAILURE)",,,,2023-09-20 12:17:46,2023-09-20 12:17:49,2.398s,PASSED
"sendKeys(findTestObject(""or2_Mobile/orm3_updateProfile/EditPassword/New Password""), ""rezawahyu123"", STOP_ON_FAILURE)",,,,2023-09-20 12:17:49,2023-09-20 12:17:49,0.371s,PASSED
pressBack(),,,,2023-09-20 12:17:49,2023-09-20 12:17:50,0.991s,PASSED
"tap(findTestObject(""or2_Mobile/orm3_updateProfile/EditPassword/Confirm Password""), 0, STOP_ON_FAILURE)",,,,2023-09-20 12:17:50,2023-09-20 12:17:52,1.936s,PASSED
"sendKeys(findTestObject(""or2_Mobile/orm3_updateProfile/EditPassword/Confirm Password""), ""rezawahyu123"", STOP_ON_FAILURE)",,,,2023-09-20 12:17:52,2023-09-20 12:17:52,0.380s,PASSED
pressBack(),,,,2023-09-20 12:17:52,2023-09-20 12:17:53,0.930s,PASSED
"delay(5, STOP_ON_FAILURE)",,,,2023-09-20 12:17:53,2023-09-20 12:17:58,5.016s,PASSED
pressBack(),,,,2023-09-20 12:17:58,2023-09-20 12:17:59,0.186s,PASSED
"delay(5, STOP_ON_FAILURE)",,,,2023-09-20 12:17:59,2023-09-20 12:18:04,5.009s,PASSED
auth.Authenticate.performLogOutProfileMobile(),,,,2023-09-20 12:18:04,2023-09-20 12:18:35,31.581s,PASSED
,,,,,,,
Test Cases/tc2_Mobile/m3_changeProfile/mp1_Mencoba masuk ke dalam menu profile,,,,2023-09-20 12:18:35,2023-09-20 12:20:07,1m - 31.689s,PASSED
auth.Authenticate.performLoginProfileMobile(),,,,2023-09-20 12:18:36,2023-09-20 12:18:59,23.451s,PASSED
"tap(findTestObject(""Object Repository/or2_Mobile/orm3_updateProfile/Home/Button - Profile""), 0)",,,,2023-09-20 12:18:59,2023-09-20 12:19:30,30.314s,PASSED
pressBack(),,,,2023-09-20 12:19:30,2023-09-20 12:19:30,0.227s,PASSED
"delay(5, STOP_ON_FAILURE)",,,,2023-09-20 12:19:30,2023-09-20 12:19:35,5.005s,PASSED
auth.Authenticate.performLogOutProfileMobile(),,,,2023-09-20 12:19:35,2023-09-20 12:20:07,32.169s,PASSED
,,,,,,,
Test Cases/tc2_Mobile/m3_changeProfile/mp2_Pengecekan tombol icon pengaturan pada profile,,,,2023-09-20 12:20:07,2023-09-20 12:21:36,1m - 28.797s,PASSED
auth.Authenticate.performLoginProfileMobile(),,,,2023-09-20 12:20:08,2023-09-20 12:20:26,18.746s,PASSED
"tap(findTestObject(""Object Repository/or2_Mobile/orm3_updateProfile/Home/Button - Profile""), 0)",,,,2023-09-20 12:20:26,2023-09-20 12:20:56,30.195s,PASSED
"tap(findTestObject(""Object Repository/or2_Mobile/orm3_updateProfile/Home/Button - Settings""), 0)",,,,2023-09-20 12:20:56,2023-09-20 12:20:58,1.824s,PASSED
"tap(findTestObject(""Object Repository/or2_Mobile/orm3_updateProfile/Home/Button - Edit Profile""), 0)",,,,2023-09-20 12:20:58,2023-09-20 12:20:59,0.503s,PASSED
pressBack(),,,,2023-09-20 12:20:59,2023-09-20 12:20:59,0.218s,PASSED
"delay(5, STOP_ON_FAILURE)",,,,2023-09-20 12:20:59,2023-09-20 12:21:04,5.015s,PASSED
auth.Authenticate.performLogOutProfileMobile(),,,,2023-09-20 12:21:04,2023-09-20 12:21:36,31.702s,PASSED
,,,,,,,
Test Cases/tc2_Mobile/m3_changeProfile/mp3_Mengedit profile full name dengan valid,,,,2023-09-20 12:21:36,2023-09-20 12:23:31,1m - 55.036s,PASSED
auth.Authenticate.performLoginProfileMobile(),,,,2023-09-20 12:21:36,2023-09-20 12:21:59,22.756s,PASSED
"tap(findTestObject(""Object Repository/or2_Mobile/orm3_updateProfile/Home/Button - Profile""), 0)",,,,2023-09-20 12:21:59,2023-09-20 12:22:30,30.708s,PASSED
"tap(findTestObject(""Object Repository/or2_Mobile/orm3_updateProfile/Home/Button - Settings""), 0)",,,,2023-09-20 12:22:30,2023-09-20 12:22:31,0.915s,PASSED
"tap(findTestObject(""Object Repository/or2_Mobile/orm3_updateProfile/Home/Button - Edit Profile""), 0)",,,,2023-09-20 12:22:31,2023-09-20 12:22:32,1.174s,PASSED
"tap(findTestObject(""Object Repository/or2_Mobile/orm3_updateProfile/EditProfile/FullName/Input - Full Name""), 0)",,,,2023-09-20 12:22:32,2023-09-20 12:22:35,2.966s,PASSED
"sendKeys(findTestObject(""Object Repository/or2_Mobile/orm3_updateProfile/EditProfile/FullName/Input - Full Name""), ""Reza Wahyu Adinata"", STOP_ON_FAILURE)",,,,2023-09-20 12:22:35,2023-09-20 12:22:36,1.266s,PASSED
pressBack(),,,,2023-09-20 12:22:36,2023-09-20 12:22:37,0.867s,PASSED
"delay(5, STOP_ON_FAILURE)",,,,2023-09-20 12:22:37,2023-09-20 12:22:42,5.017s,PASSED
"tap(findTestObject(""Object Repository/or2_Mobile/orm3_updateProfile/EditProfile/Button - Save Changes""), 0)",,,,2023-09-20 12:22:42,2023-09-20 12:22:42,0.475s,PASSED
pressBack(),,,,2023-09-20 12:22:42,2023-09-20 12:22:43,0.779s,PASSED
"delay(5, STOP_ON_FAILURE)",,,,2023-09-20 12:22:43,2023-09-20 12:22:48,5.012s,PASSED
"tap(findTestObject(""Object Repository/or2_Mobile/orm3_updateProfile/EditProfile/Button - Save Changes""), 0)",,,,2023-09-20 12:22:48,2023-09-20 12:22:49,0.562s,PASSED
"delay(5, STOP_ON_FAILURE)",,,,2023-09-20 12:22:49,2023-09-20 12:22:54,5.005s,PASSED
"tap(findTestObject(""or2_Mobile/orm3_updateProfile/EditProfile/Button - Confimation Okay (save changes)""), 0)",,,,2023-09-20 12:22:54,2023-09-20 12:22:54,0.312s,PASSED
"delay(5, STOP_ON_FAILURE)",,,,2023-09-20 12:22:54,2023-09-20 12:22:59,5.016s,PASSED
auth.Authenticate.performLogOutProfileMobile(),,,,2023-09-20 12:22:59,2023-09-20 12:23:31,31.592s,PASSED
,,,,,,,
Test Cases/tc2_Mobile/m3_changeProfile/mp4_Mengedit profile full name dengan symbol,,,,2023-09-20 12:23:31,2023-09-20 12:25:22,1m - 50.983s,PASSED
auth.Authenticate.performLoginProfileMobile(),,,,2023-09-20 12:23:31,2023-09-20 12:23:57,25.447s,PASSED
"tap(findTestObject(""Object Repository/or2_Mobile/orm3_updateProfile/Home/Button - Profile""), 0)",,,,2023-09-20 12:23:57,2023-09-20 12:24:27,30.225s,PASSED
"tap(findTestObject(""Object Repository/or2_Mobile/orm3_updateProfile/Home/Button - Settings""), 0)",,,,2023-09-20 12:24:27,2023-09-20 12:24:29,1.810s,PASSED
"tap(findTestObject(""Object Repository/or2_Mobile/orm3_updateProfile/Home/Button - Edit Profile""), 0)",,,,2023-09-20 12:24:29,2023-09-20 12:24:29,0.443s,PASSED
"tap(findTestObject(""Object Repository/or2_Mobile/orm3_updateProfile/EditProfile/FullName/Input - Full Name""), 0)",,,,2023-09-20 12:24:29,2023-09-20 12:24:32,2.552s,PASSED
"sendKeys(findTestObject(""Object Repository/or2_Mobile/orm3_updateProfile/EditProfile/FullName/Input - Full Name""), ""Reza_Wahyu_Adinata"", STOP_ON_FAILURE)",,,,2023-09-20 12:24:32,2023-09-20 12:24:33,1.303s,PASSED
pressBack(),,,,2023-09-20 12:24:33,2023-09-20 12:24:34,0.845s,PASSED
"delay(5, STOP_ON_FAILURE)",,,,2023-09-20 12:24:34,2023-09-20 12:24:39,5.014s,PASSED
pressBack(),,,,2023-09-20 12:24:39,2023-09-20 12:24:39,0.174s,PASSED
"delay(5, STOP_ON_FAILURE)",,,,2023-09-20 12:24:39,2023-09-20 12:24:44,5.012s,PASSED
pressBack(),,,,2023-09-20 12:24:44,2023-09-20 12:24:44,0.189s,PASSED
"delay(5, STOP_ON_FAILURE)",,,,2023-09-20 12:24:44,2023-09-20 12:24:49,5.015s,PASSED
auth.Authenticate.performLogOutProfileMobile(),,,,2023-09-20 12:24:49,2023-09-20 12:25:22,32.380s,PASSED
,,,,,,,
Test Cases/tc2_Mobile/m3_changeProfile/mp5_Mengedit profile full name dengan angka,,,,2023-09-20 12:25:22,2023-09-20 12:27:25,2m - 2.941s,PASSED
auth.Authenticate.performLoginProfileMobile(),,,,2023-09-20 12:25:22,2023-09-20 12:25:45,22.838s,PASSED
"tap(findTestObject(""Object Repository/or2_Mobile/orm3_updateProfile/Home/Button - Profile""), 0)",,,,2023-09-20 12:25:45,2023-09-20 12:26:15,30.211s,PASSED
"tap(findTestObject(""Object Repository/or2_Mobile/orm3_updateProfile/Home/Button - Settings""), 0)",,,,2023-09-20 12:26:15,2023-09-20 12:26:17,1.738s,PASSED
"tap(findTestObject(""Object Repository/or2_Mobile/orm3_updateProfile/Home/Button - Edit Profile""), 0)",,,,2023-09-20 12:26:17,2023-09-20 12:26:18,0.461s,PASSED
"tap(findTestObject(""Object Repository/or2_Mobile/orm3_updateProfile/EditProfile/FullName/Input - Full Name""), 0)",,,,2023-09-20 12:26:18,2023-09-20 12:26:20,2.660s,PASSED
"sendKeys(findTestObject(""Object Repository/or2_Mobile/orm3_updateProfile/EditProfile/FullName/Input - Full Name""), ""1234567890"", STOP_ON_FAILURE)",,,,2023-09-20 12:26:20,2023-09-20 12:26:21,0.441s,PASSED
pressBack(),,,,2023-09-20 12:26:21,2023-09-20 12:26:22,1.305s,PASSED
"delay(5, STOP_ON_FAILURE)",,,,2023-09-20 12:26:22,2023-09-20 12:26:27,5.013s,PASSED
pressBack(),,,,2023-09-20 12:26:27,2023-09-20 12:26:27,0.187s,PASSED
"delay(5, STOP_ON_FAILURE)",,,,2023-09-20 12:26:27,2023-09-20 12:26:32,5.013s,PASSED
pressBack(),,,,2023-09-20 12:26:32,2023-09-20 12:26:32,0.173s,PASSED
"delay(20, STOP_ON_FAILURE)",,,,2023-09-20 12:26:32,2023-09-20 12:26:52,20.017s,PASSED
auth.Authenticate.performLogOutProfileMobile(),,,,2023-09-20 12:26:52,2023-09-20 12:27:25,32.232s,PASSED
,,,,,,,
Test Cases/tc2_Mobile/m3_changeProfile/mp6_Mengedit profile full name dengan kosong,,,,2023-09-20 12:27:25,2023-09-20 12:29:17,1m - 52.629s,PASSED
auth.Authenticate.performLoginProfileMobile(),,,,2023-09-20 12:27:25,2023-09-20 12:27:52,26.410s,PASSED
"tap(findTestObject(""Object Repository/or2_Mobile/orm3_updateProfile/Home/Button - Profile""), 0)",,,,2023-09-20 12:27:52,2023-09-20 12:28:22,30.265s,PASSED
"tap(findTestObject(""Object Repository/or2_Mobile/orm3_updateProfile/Home/Button - Settings""), 0)",,,,2023-09-20 12:28:22,2023-09-20 12:28:23,1.197s,PASSED
"tap(findTestObject(""Object Repository/or2_Mobile/orm3_updateProfile/Home/Button - Edit Profile""), 0)",,,,2023-09-20 12:28:23,2023-09-20 12:28:24,1.297s,PASSED
"tap(findTestObject(""Object Repository/or2_Mobile/orm3_updateProfile/EditProfile/FullName/Input - Full Name""), 0)",,,,2023-09-20 12:28:24,2023-09-20 12:28:27,2.285s,PASSED
"sendKeys(findTestObject(""Object Repository/or2_Mobile/orm3_updateProfile/EditProfile/FullName/Input - Full Name""), "" "", STOP_ON_FAILURE)",,,,2023-09-20 12:28:27,2023-09-20 12:28:29,1.867s,PASSED
pressBack(),,,,2023-09-20 12:28:29,2023-09-20 12:28:30,0.893s,PASSED
"delay(5, STOP_ON_FAILURE)",,,,2023-09-20 12:28:30,2023-09-20 12:28:35,5.007s,PASSED
pressBack(),,,,2023-09-20 12:28:35,2023-09-20 12:28:35,0.189s,PASSED
"delay(5, STOP_ON_FAILURE)",,,,2023-09-20 12:28:35,2023-09-20 12:28:40,5.007s,PASSED
pressBack(),,,,2023-09-20 12:28:40,2023-09-20 12:28:40,0.174s,PASSED
"delay(5, STOP_ON_FAILURE)",,,,2023-09-20 12:28:40,2023-09-20 12:28:45,5.014s,PASSED
auth.Authenticate.performLogOutProfileMobile(),,,,2023-09-20 12:28:45,2023-09-20 12:29:17,32.434s,PASSED
,,,,,,,
Test Cases/tc2_Mobile/m3_changeProfile/mp7_Mengedit nomor telephone dengan data yang valid,,,,2023-09-20 12:29:17,2023-09-20 12:31:07,1m - 49.707s,PASSED
auth.Authenticate.performLoginProfileMobile(),,,,2023-09-20 12:29:18,2023-09-20 12:29:45,27.206s,PASSED
"tap(findTestObject(""Object Repository/or2_Mobile/orm3_updateProfile/Home/Button - Profile""), 0)",,,,2023-09-20 12:29:45,2023-09-20 12:30:16,30.271s,PASSED
"tap(findTestObject(""Object Repository/or2_Mobile/orm3_updateProfile/Home/Button - Settings""), 0)",,,,2023-09-20 12:30:16,2023-09-20 12:30:17,0.915s,PASSED
"tap(findTestObject(""Object Repository/or2_Mobile/orm3_updateProfile/Home/Button - Edit Profile""), 0)",,,,2023-09-20 12:30:17,2023-09-20 12:30:18,1.378s,PASSED
"tap(findTestObject(""Object Repository/or2_Mobile/orm3_updateProfile/EditProfile/Phone/Input - Phone""), 0)",,,,2023-09-20 12:30:18,2023-09-20 12:30:21,2.875s,PASSED
"sendKeys(findTestObject(""Object Repository/or2_Mobile/orm3_updateProfile/EditProfile/Phone/Input - Phone""), ""081385484593"", STOP_ON_FAILURE)",,,,2023-09-20 12:30:21,2023-09-20 12:30:21,0.376s,PASSED
pressBack(),,,,2023-09-20 12:30:21,2023-09-20 12:30:22,1.279s,PASSED
"tap(findTestObject(""Object Repository/or2_Mobile/orm3_updateProfile/EditProfile/Button - Save Changes""), 0)",,,,2023-09-20 12:30:22,2023-09-20 12:30:23,0.981s,PASSED
pressBack(),,,,2023-09-20 12:30:23,2023-09-20 12:30:24,0.863s,PASSED
"tap(findTestObject(""Object Repository/or2_Mobile/orm3_updateProfile/EditProfile/Button - Save Changes""), 0)",,,,2023-09-20 12:30:24,2023-09-20 12:30:25,0.775s,PASSED
"delay(5, STOP_ON_FAILURE)",,,,2023-09-20 12:30:25,2023-09-20 12:30:30,5.020s,PASSED
"tap(findTestObject(""or2_Mobile/orm3_updateProfile/EditProfile/Button - Confimation Okay (save changes)""), 0)",,,,2023-09-20 12:30:30,2023-09-20 12:30:30,0.305s,PASSED
"delay(5, STOP_ON_FAILURE)",,,,2023-09-20 12:30:30,2023-09-20 12:30:35,5.005s,PASSED
auth.Authenticate.performLogOutProfileMobile(),,,,2023-09-20 12:30:35,2023-09-20 12:31:07,31.675s,PASSED
,,,,,,,
Test Cases/tc2_Mobile/m3_changeProfile/mp8_Mengedit nomor telephone dengan huruf,,,,2023-09-20 12:31:07,2023-09-20 12:33:11,2m - 3.583s,PASSED
auth.Authenticate.performLoginProfileMobile(),,,,2023-09-20 12:31:08,2023-09-20 12:31:30,22.036s,PASSED
"tap(findTestObject(""Object Repository/or2_Mobile/orm3_updateProfile/Home/Button - Profile""), 0)",,,,2023-09-20 12:31:30,2023-09-20 12:32:00,30.654s,PASSED
"tap(findTestObject(""Object Repository/or2_Mobile/orm3_updateProfile/Home/Button - Settings""), 0)",,,,2023-09-20 12:32:00,2023-09-20 12:32:02,1.773s,PASSED
"tap(findTestObject(""Object Repository/or2_Mobile/orm3_updateProfile/Home/Button - Edit Profile""), 0)",,,,2023-09-20 12:32:02,2023-09-20 12:32:03,0.729s,PASSED
"tap(findTestObject(""Object Repository/or2_Mobile/orm3_updateProfile/EditProfile/Phone/Input - Phone""), 0)",,,,2023-09-20 12:32:03,2023-09-20 12:32:05,2.549s,PASSED
"sendKeys(findTestObject(""Object Repository/or2_Mobile/orm3_updateProfile/EditProfile/Phone/Input - Phone""), ""nomor saya"", STOP_ON_FAILURE)",,,,2023-09-20 12:32:05,2023-09-20 12:32:07,1.359s,PASSED
pressBack(),,,,2023-09-20 12:32:07,2023-09-20 12:32:08,1.227s,PASSED
"delay(5, STOP_ON_FAILURE)",,,,2023-09-20 12:32:08,2023-09-20 12:32:13,5.009s,PASSED
pressBack(),,,,2023-09-20 12:32:13,2023-09-20 12:32:13,0.191s,PASSED
"delay(5, STOP_ON_FAILURE)",,,,2023-09-20 12:32:13,2023-09-20 12:32:18,5.008s,PASSED
pressBack(),,,,2023-09-20 12:32:18,2023-09-20 12:32:18,0.158s,PASSED
"delay(20, STOP_ON_FAILURE)",,,,2023-09-20 12:32:18,2023-09-20 12:32:38,20.009s,PASSED
auth.Authenticate.performLogOutProfileMobile(),,,,2023-09-20 12:32:38,2023-09-20 12:33:11,32.297s,PASSED
,,,,,,,
Test Cases/tc2_Mobile/m3_changeProfile/mp9_Mengedit nomor telephone dengan kosong,,,,2023-09-20 12:33:11,2023-09-20 12:35:13,2m - 2.402s,PASSED
auth.Authenticate.performLoginProfileMobile(),,,,2023-09-20 12:33:11,2023-09-20 12:33:33,21.444s,PASSED
"tap(findTestObject(""Object Repository/or2_Mobile/orm3_updateProfile/Home/Button - Profile""), 0)",,,,2023-09-20 12:33:33,2023-09-20 12:34:03,30.372s,PASSED
"tap(findTestObject(""Object Repository/or2_Mobile/orm3_updateProfile/Home/Button - Settings""), 0)",,,,2023-09-20 12:34:03,2023-09-20 12:34:05,1.792s,PASSED
"tap(findTestObject(""Object Repository/or2_Mobile/orm3_updateProfile/Home/Button - Edit Profile""), 0)",,,,2023-09-20 12:34:05,2023-09-20 12:34:05,0.512s,PASSED
"tap(findTestObject(""Object Repository/or2_Mobile/orm3_updateProfile/EditProfile/Phone/Input - Phone""), 0)",,,,2023-09-20 12:34:05,2023-09-20 12:34:08,2.775s,PASSED
"sendKeys(findTestObject(""Object Repository/or2_Mobile/orm3_updateProfile/EditProfile/Phone/Input - Phone""), "" "", STOP_ON_FAILURE)",,,,2023-09-20 12:34:08,2023-09-20 12:34:09,1.297s,PASSED
pressBack(),,,,2023-09-20 12:34:09,2023-09-20 12:34:10,0.901s,PASSED
"delay(5, STOP_ON_FAILURE)",,,,2023-09-20 12:34:10,2023-09-20 12:34:15,5.003s,PASSED
pressBack(),,,,2023-09-20 12:34:15,2023-09-20 12:34:16,0.202s,PASSED
"delay(5, STOP_ON_FAILURE)",,,,2023-09-20 12:34:16,2023-09-20 12:34:21,5.004s,PASSED
pressBack(),,,,2023-09-20 12:34:21,2023-09-20 12:34:21,0.170s,PASSED
"delay(20, STOP_ON_FAILURE)",,,,2023-09-20 12:34:21,2023-09-20 12:34:41,20.016s,PASSED
auth.Authenticate.performLogOutProfileMobile(),,,,2023-09-20 12:34:41,2023-09-20 12:35:13,32.304s,PASSED
