{
  "log" : {
    "version" : "1.2",
    "pages" : [ ],
    "entries" : [ {
      "startedDateTime" : "2023-09-18T12:24:07.352Z",
      "request" : {
        "method" : "POST",
        "url" : "https://demo-app.online/api/login",
        "httpVersion" : "",
        "cookies" : [ ],
        "headers" : [ {
          "name" : "Content-Type",
          "value" : "multipart/form-data"
        } ],
        "queryString" : [ ],
        "postData" : {
          "mimeType" : "multipart/form-data",
          "text" : "--QLQSCa1qvMr4d-Zs1wBoax1sNlqDDTYDc9R\r\nContent-Disposition: form-data; name=\"email\"\r\nContent-Type: text/plain; charset=ISO-8859-1\r\nContent-Transfer-Encoding: 8bit\r\n\r\nadinatarezawahyu@gmail.com\r\n--QLQSCa1qvMr4d-Zs1wBoax1sNlqDDTYDc9R\r\nContent-Disposition: form-data; name=\"password\"\r\nContent-Type: text/plain; charset=ISO-8859-1\r\nContent-Transfer-Encoding: 8bit\r\n\r\nrezawahyu123\r\n--QLQSCa1qvMr4d-Zs1wBoax1sNlqDDTYDc9R--\r\n",
          "comment" : ""
        },
        "headersSize" : 0,
        "bodySize" : 0,
        "comment" : ""
      },
      "response" : {
        "status" : 200,
        "statusText" : "",
        "httpVersion" : "",
        "cookies" : [ ],
        "headers" : [ {
          "name" : "Keep-Alive",
          "value" : "timeout=5, max=100"
        }, {
          "name" : "access-control-allow-origin",
          "value" : "*"
        }, {
          "name" : "date",
          "value" : "Mon, 18 Sep 2023 12:24:06 GMT"
        }, {
          "name" : "server",
          "value" : "LiteSpeed"
        }, {
          "name" : "x-ratelimit-limit",
          "value" : "60"
        }, {
          "name" : "vary",
          "value" : "Accept-Encoding"
        }, {
          "name" : "Connection",
          "value" : "Keep-Alive"
        }, {
          "name" : "x-powered-by",
          "value" : "PHP/7.4.33"
        }, {
          "name" : "content-type",
          "value" : "application/json"
        }, {
          "name" : "#status#",
          "value" : "HTTP/1.1 200 OK"
        }, {
          "name" : "cache-control",
          "value" : "no-cache, private"
        }, {
          "name" : "x-ratelimit-remaining",
          "value" : "48"
        } ],
        "content" : {
          "size" : 1348,
          "mimeType" : "application/json",
          "text" : "{\"success\":{\"member_name\":\"Basic\",\"member_id\":1,\"token\":\"eyJ0eXAiOiJKV1QiLCJhbGciOiJSUzI1NiJ9.eyJhdWQiOiIzIiwianRpIjoiZjY1NjRiMGM5YmFmOTZhZmE2OTMwYzNhZWJkN2M5ZWRlNWI2ZWZiODUzODQ5NDJmYzQ2MzNhY2IyYzE1MjFhYTMyMGM2MGIxYWNkMWYwZTYiLCJpYXQiOjE2OTUwMzk4NDYuNTE3NzE1LCJuYmYiOjE2OTUwMzk4NDYuNTE3NzE5LCJleHAiOjE3MjY2NjIyNDYuNTE0NjI5LCJzdWIiOiI5MDYiLCJzY29wZXMiOltdfQ.UNWi6WdFmtQm2xmZAAg0DtqCZJOTo1GTJAIJv4VWT1JQsc0Yqig8uMBT_gYp0ftpRo0MQmodRUo0K_YqYbDD7466iufIFw8JExfAs0s0Lgy0C_IbzmWqmlFMGSxXOMpC2wjcsoMPvsiw1-Z2t4D5oi5oIXDbe6ZFPG41A4OSgK1t5e-3efD5OfJuqoNZzApXuSckD3k_pMFWZoJfAUPyE1aQOgGGeuz372ZGWIoeF9HrEH9BqNf7mG3jFpNQkzC4jsQC21z8l_VtniUJ34QSaSOn0BhVqYTGrNUnd2zzzMtR0GqzlEDttygNyMpxxhY7P2J7OFoaDq3SqWWaeDKhE0j0LhZTnM05xoMg7Q5TZIvro_AWtr27e6xKGF2iZ8w0gEBi4rR41Yn3kUKUR1oLf5WDTw92fg4DCn5pCsuMmmW37Gzh9PU5CZIyx5i6wHIT9oNRGoI37L-0k9H8fF-Vm_j8mGmesShpqbOg0Ml8gI_ycQ6Hb_u8X4BjFa9KK1o9MQuins3DxxQclspWWD3v85bGVcIjCqGqMHZOxTz74p4VRaiIigK2tD_ayp7IfCfhA2QRbgZMhcKyUOLcF5rMdKXH0zPl7jIGmXgqv1KvTvioicp4u_--YYbl8p_g2l6HmP777uiHNxQavz9hchtxD2RKu8RjyrC5MVDBo40lkAk\",\"name\":\"1234567890\",\"email\":\"adinatarezawahyu@gmail.com\",\"birth_date\":\"2016-12-31\",\"whatsapp\":\"081385484594\",\"referral\":\"SFH3G\",\"points\":\"0\",\"bio\":null,\"position\":null,\"photo\":\"https:\\/\\/storage.googleapis.com\\/codingid-storage-bucket\\/storage\\/uploads\\/avatar\\/1694702212gambar_10.jpg\",\"isPartner\":false}}",
          "comment" : ""
        },
        "redirectURL" : "",
        "headersSize" : 265,
        "bodySize" : -1,
        "comment" : ""
      },
      "cache" : { },
      "timings" : {
        "comment" : "",
        "ssl" : -1,
        "connect" : 0,
        "send" : 0,
        "receive" : 0,
        "dns" : -1,
        "wait" : 0,
        "blocked" : -1
      },
      "comment" : "",
      "_katalonRequestInformation" : {
        "name" : "11",
        "testObjectId" : "Object Repository/or3_API/ora1_login/a1-login",
        "harId" : "f870ef66-f63b-4a12-bbed-1f99c614588c",
        "reportFolder" : null
      },
      "time" : 0
    } ],
    "comment" : ""
  }
}