{
  "log" : {
    "version" : "1.2",
    "pages" : [ ],
    "entries" : [ {
      "startedDateTime" : "2023-09-18T12:24:08.944Z",
      "request" : {
        "method" : "POST",
        "url" : "https://demo-app.online/api/login",
        "httpVersion" : "",
        "cookies" : [ ],
        "headers" : [ {
          "name" : "Content-Type",
          "value" : "multipart/form-data"
        } ],
        "queryString" : [ ],
        "postData" : {
          "mimeType" : "multipart/form-data",
          "text" : "--sYlNjQCW8ziVZMbj4pEyyTm4cB4fmY_\r\nContent-Disposition: form-data; name=\"email\"\r\nContent-Type: text/plain; charset=ISO-8859-1\r\nContent-Transfer-Encoding: 8bit\r\n\r\nadinatarezawahyu@gmail.com\r\n--sYlNjQCW8ziVZMbj4pEyyTm4cB4fmY_\r\nContent-Disposition: form-data; name=\"password\"\r\nContent-Type: text/plain; charset=ISO-8859-1\r\nContent-Transfer-Encoding: 8bit\r\n\r\nrezawahyu123\r\n--sYlNjQCW8ziVZMbj4pEyyTm4cB4fmY_--\r\n",
          "comment" : ""
        },
        "headersSize" : 0,
        "bodySize" : 0,
        "comment" : ""
      },
      "response" : {
        "status" : 200,
        "statusText" : "",
        "httpVersion" : "",
        "cookies" : [ ],
        "headers" : [ {
          "name" : "Keep-Alive",
          "value" : "timeout=5, max=100"
        }, {
          "name" : "access-control-allow-origin",
          "value" : "*"
        }, {
          "name" : "date",
          "value" : "Mon, 18 Sep 2023 12:24:08 GMT"
        }, {
          "name" : "server",
          "value" : "LiteSpeed"
        }, {
          "name" : "x-ratelimit-limit",
          "value" : "60"
        }, {
          "name" : "vary",
          "value" : "Accept-Encoding"
        }, {
          "name" : "Connection",
          "value" : "Keep-Alive"
        }, {
          "name" : "x-powered-by",
          "value" : "PHP/7.4.33"
        }, {
          "name" : "content-type",
          "value" : "application/json"
        }, {
          "name" : "#status#",
          "value" : "HTTP/1.1 200 OK"
        }, {
          "name" : "cache-control",
          "value" : "no-cache, private"
        }, {
          "name" : "x-ratelimit-remaining",
          "value" : "46"
        } ],
        "content" : {
          "size" : 1348,
          "mimeType" : "application/json",
          "text" : "{\"success\":{\"member_name\":\"Basic\",\"member_id\":1,\"token\":\"eyJ0eXAiOiJKV1QiLCJhbGciOiJSUzI1NiJ9.eyJhdWQiOiIzIiwianRpIjoiZWEyY2VlNGI4OGQzNWZhNDliMmNhNDAyNjFlYTc4MjBjYWYxMDRjNDA0OTkyMTJkMjE2YTA4MGYwNTg2NDZhYzJmMzY5OTU0Njc3YTA5NDgiLCJpYXQiOjE2OTUwMzk4NDguMDk5OTIxLCJuYmYiOjE2OTUwMzk4NDguMDk5OTI1LCJleHAiOjE3MjY2NjIyNDguMDk4NDg0LCJzdWIiOiI5MDYiLCJzY29wZXMiOltdfQ.QPTKX3c1KioGSUj3d65qSgy6OzLMYeDViGDPD_yvrpAoqBNhuAz17DxbhXbviHx8sdMDqtkMgixKRPecZR0VzVcEhxn5Yw2n8NokVpiXVqvMKfO9jbJOftImNfYuCl0IvZEfTfFIwmrO3nUQSBiLktORRlDG8K-VTLKtRA-xO2NIWPHJ4nd1sNdXMZ2zJEsTzYfZpP2arlgN8JU7FphjcRoekJHUAoz-gfVCU1vxCGYxLeiM_232RwsvE0PzbtnjOZubNc9YoMI3OXKKV1nXoFWtlB7gd7p_XpHPvh0_JdzWAU2NC8qaYTmoEQyI0XPF5rU9Hr3u0t3Fkh-tAI8jGqWb722d1r8sJpbaIxOh6RvogpSPE8wjbUb6Zzz1Oy-w1A90i_y7pKOoBVefDF--3P6B6aUhjtOKPK73yGS2_31ESaKM1BcPtaSXVhqbQvl3ulb3l33w8Z4m-a-wTV5bMAODGvXSN7OsepDQfoANMZ2Op91vZH88uhrwA9r5EKNtOwMRpQRKmzhlk__N7Buo0TeS6pTnN_vtOTigujPLjLuLVS40LgYfWfsceGsxPSVdpsU6BCeqzczQmhekg2fZ9SrzgGerVt23CryBb9GDaly3v3dUkLpvLerP3YRchF40vBEdu_WwkYMaZfFqt2sFntkb9PVMq3ywm6j41hCke5A\",\"name\":\"1234567890\",\"email\":\"adinatarezawahyu@gmail.com\",\"birth_date\":\"2016-12-31\",\"whatsapp\":\"081385484594\",\"referral\":\"SFH3G\",\"points\":\"0\",\"bio\":null,\"position\":null,\"photo\":\"https:\\/\\/storage.googleapis.com\\/codingid-storage-bucket\\/storage\\/uploads\\/avatar\\/1694702212gambar_10.jpg\",\"isPartner\":false}}",
          "comment" : ""
        },
        "redirectURL" : "",
        "headersSize" : 265,
        "bodySize" : -1,
        "comment" : ""
      },
      "cache" : { },
      "timings" : {
        "comment" : "",
        "ssl" : -1,
        "connect" : 0,
        "send" : 0,
        "receive" : 0,
        "dns" : -1,
        "wait" : 0,
        "blocked" : -1
      },
      "comment" : "",
      "_katalonRequestInformation" : {
        "name" : "13",
        "testObjectId" : "Object Repository/or3_API/ora1_login/a1-login",
        "harId" : "f4529fea-976d-47f3-bf8d-b0e2002b51da",
        "reportFolder" : null
      },
      "time" : 0
    } ],
    "comment" : ""
  }
}