Suite/Test/Step Name,Browser,Description,Tag,Start time,End time,Duration,Status
ts2_web_login,Chrome 117.0.0.0,,,2023-09-18 18:40:26,2023-09-18 18:43:25,2m - 58.704s,PASSED
,,,,,,,
Test Cases/tc1_Website/w2_login/wl10_Melakukan lupa kata sandi pada menu reset password dengan kendala waktu dengan cara merefresh,Chrome 117.0.0.0,,,2023-09-18 18:40:27,2023-09-18 18:40:51,24.448s,PASSED
"openBrowser("""")",Chrome 117.0.0.0,,,2023-09-18 18:40:27,2023-09-18 18:40:31,4.028s,PASSED
deleteAllCookies(),Chrome 117.0.0.0,,,2023-09-18 18:40:31,2023-09-18 18:40:31,0.061s,PASSED
maximizeWindow(),Chrome 117.0.0.0,,,2023-09-18 18:40:31,2023-09-18 18:40:31,0.245s,PASSED
"navigateToUrl(""https://demo-app.online/"")",Chrome 117.0.0.0,,,2023-09-18 18:40:31,2023-09-18 18:40:35,4.059s,PASSED
"click(findTestObject(""Object Repository/or1_Website/orw2_login/Page_Be a Profressional Talent with Coding.ID/a_Masuk""))",Chrome 117.0.0.0,,,2023-09-18 18:40:35,2023-09-18 18:40:37,1.128s,PASSED
"click(findTestObject(""Object Repository/or1_Website/orw2_login/Page_Masuk untuk dapatkan akses di Coding.ID/a_Lupa kata sandi""))",Chrome 117.0.0.0,,,2023-09-18 18:40:37,2023-09-18 18:40:37,0.920s,PASSED
"setText(findTestObject(""Object Repository/or1_Website/orw2_login/Page_Lupa password akun Coding.ID kamu Rese_b3cffc/input_Lupa Kata Sandi_email""), ""adinatarezawahyu@gmail.com"")",Chrome 117.0.0.0,,,2023-09-18 18:40:37,2023-09-18 18:40:39,1.122s,PASSED
"click(findTestObject(""Object Repository/or1_Website/orw2_login/Page_Lupa password akun Coding.ID kamu Rese_b3cffc/button_Kirim link""))",Chrome 117.0.0.0,,,2023-09-18 18:40:39,2023-09-18 18:40:46,7.368s,PASSED
refresh(),Chrome 117.0.0.0,,,2023-09-18 18:40:46,2023-09-18 18:40:46,0.448s,PASSED
"setText(findTestObject(""Object Repository/or1_Website/orw2_login/Page_Lupa password akun Coding.ID kamu Rese_b3cffc/input_Lupa Kata Sandi_email""), ""adinatarezawahyu@gmail.com"")",Chrome 117.0.0.0,,,2023-09-18 18:40:46,2023-09-18 18:40:48,1.100s,PASSED
"click(findTestObject(""Object Repository/or1_Website/orw2_login/Page_Lupa password akun Coding.ID kamu Rese_b3cffc/button_Kirim link""))",Chrome 117.0.0.0,,,2023-09-18 18:40:48,2023-09-18 18:40:48,0.964s,PASSED
"verifyElementVisible(findTestObject(""Object Repository/or1_Website/orw2_login/Page_Lupa password akun Coding.ID kamu Rese_b3cffc/strong_User tidak ditemukan""), STOP_ON_FAILURE)",Chrome 117.0.0.0,,,2023-09-18 18:40:48,2023-09-18 18:40:49,0.847s,PASSED
"verifyElementText(findTestObject(""Object Repository/or1_Website/orw2_login/Page_Lupa password akun Coding.ID kamu Rese_b3cffc/strong_User tidak ditemukan""), ""User tidak ditemukan"")",Chrome 117.0.0.0,,,2023-09-18 18:40:49,2023-09-18 18:40:50,0.690s,PASSED
closeBrowser(),Chrome 117.0.0.0,,,2023-09-18 18:40:50,2023-09-18 18:40:51,0.977s,PASSED
,,,,,,,
Test Cases/tc1_Website/w2_login/wl1_Login dengan password yang kosong,Chrome 117.0.0.0,,,2023-09-18 18:40:51,2023-09-18 18:40:59,8.014s,PASSED
"openBrowser("""")",Chrome 117.0.0.0,,,2023-09-18 18:40:51,2023-09-18 18:40:53,1.497s,PASSED
deleteAllCookies(),Chrome 117.0.0.0,,,2023-09-18 18:40:53,2023-09-18 18:40:53,0.028s,PASSED
maximizeWindow(),Chrome 117.0.0.0,,,2023-09-18 18:40:53,2023-09-18 18:40:53,0.159s,PASSED
"navigateToUrl(""https://demo-app.online/"")",Chrome 117.0.0.0,,,2023-09-18 18:40:53,2023-09-18 18:40:55,2.032s,PASSED
"click(findTestObject(""Object Repository/or1_Website/orw2_login/Page_Be a Profressional Talent with Coding.ID/a_Masuk""))",Chrome 117.0.0.0,,,2023-09-18 18:40:55,2023-09-18 18:40:56,1.184s,PASSED
"setText(findTestObject(""Object Repository/or1_Website/orw2_login/Page_Masuk untuk dapatkan akses di Coding.ID/input_Email_email""), ""adinatarezawahyu@gmail.com"")",Chrome 117.0.0.0,,,2023-09-18 18:40:56,2023-09-18 18:40:58,1.196s,PASSED
"click(findTestObject(""Object Repository/or1_Website/orw2_login/Page_Masuk untuk dapatkan akses di Coding.ID/button_Login""))",Chrome 117.0.0.0,,,2023-09-18 18:40:58,2023-09-18 18:40:58,0.446s,PASSED
"verifyTextNotPresent(""Please fill out this field"", false)",Chrome 117.0.0.0,,,2023-09-18 18:40:58,2023-09-18 18:40:58,0.369s,PASSED
closeBrowser(),Chrome 117.0.0.0,,,2023-09-18 18:40:58,2023-09-18 18:40:59,0.654s,PASSED
,,,,,,,
Test Cases/tc1_Website/w2_login/wl2_Login dengan email yang kosong,Chrome 117.0.0.0,,,2023-09-18 18:40:59,2023-09-18 18:41:07,7.893s,PASSED
"openBrowser("""")",Chrome 117.0.0.0,,,2023-09-18 18:40:59,2023-09-18 18:41:01,1.414s,PASSED
deleteAllCookies(),Chrome 117.0.0.0,,,2023-09-18 18:41:01,2023-09-18 18:41:01,0.023s,PASSED
maximizeWindow(),Chrome 117.0.0.0,,,2023-09-18 18:41:01,2023-09-18 18:41:01,0.147s,PASSED
"navigateToUrl(""https://demo-app.online/"")",Chrome 117.0.0.0,,,2023-09-18 18:41:01,2023-09-18 18:41:03,1.654s,PASSED
"click(findTestObject(""Object Repository/or1_Website/orw2_login/Page_Be a Profressional Talent with Coding.ID/a_Masuk""))",Chrome 117.0.0.0,,,2023-09-18 18:41:03,2023-09-18 18:41:04,1.567s,PASSED
"setEncryptedText(findTestObject(""Object Repository/or1_Website/orw2_login/Page_Masuk untuk dapatkan akses di Coding.ID/input_Kata                                 _98da12""), ""Gz08DaJU9NXyFmL46LbsMw=="")",Chrome 117.0.0.0,,,2023-09-18 18:41:04,2023-09-18 18:41:05,1.200s,PASSED
"click(findTestObject(""Object Repository/or1_Website/orw2_login/Page_Masuk untuk dapatkan akses di Coding.ID/button_Login""))",Chrome 117.0.0.0,,,2023-09-18 18:41:05,2023-09-18 18:41:06,0.497s,PASSED
"verifyTextNotPresent(""Please fill out this field"", false)",Chrome 117.0.0.0,,,2023-09-18 18:41:06,2023-09-18 18:41:06,0.368s,PASSED
closeBrowser(),Chrome 117.0.0.0,,,2023-09-18 18:41:06,2023-09-18 18:41:07,0.675s,PASSED
,,,,,,,
Test Cases/tc1_Website/w2_login/wl3_Login menggunakan data email yang valid dan password yang tidak valid,Chrome 117.0.0.0,,,2023-09-18 18:41:07,2023-09-18 18:41:41,34.278s,PASSED
"openBrowser("""")",Chrome 117.0.0.0,,,2023-09-18 18:41:07,2023-09-18 18:41:09,1.606s,PASSED
deleteAllCookies(),Chrome 117.0.0.0,,,2023-09-18 18:41:09,2023-09-18 18:41:09,0.024s,PASSED
maximizeWindow(),Chrome 117.0.0.0,,,2023-09-18 18:41:09,2023-09-18 18:41:09,0.170s,PASSED
"navigateToUrl(""https://demo-app.online/"")",Chrome 117.0.0.0,,,2023-09-18 18:41:09,2023-09-18 18:41:28,19.189s,PASSED
"click(findTestObject(""Object Repository/or1_Website/orw2_login/Page_Be a Profressional Talent with Coding.ID/a_Masuk""))",Chrome 117.0.0.0,,,2023-09-18 18:41:28,2023-09-18 18:41:36,7.415s,PASSED
"setText(findTestObject(""Object Repository/or1_Website/orw2_login/Page_Masuk untuk dapatkan akses di Coding.ID/input_Email_email""), ""adinatarezawahyu@gmail.com"")",Chrome 117.0.0.0,,,2023-09-18 18:41:36,2023-09-18 18:41:37,0.899s,PASSED
"setEncryptedText(findTestObject(""Object Repository/or1_Website/orw2_login/Page_Masuk untuk dapatkan akses di Coding.ID/input_Kata                                 _98da12""), ""Gz08DaJU9NVjODvbJ/o9Uw=="")",Chrome 117.0.0.0,,,2023-09-18 18:41:37,2023-09-18 18:41:37,0.701s,PASSED
"click(findTestObject(""Object Repository/or1_Website/orw2_login/Page_Masuk untuk dapatkan akses di Coding.ID/button_Login""))",Chrome 117.0.0.0,,,2023-09-18 18:41:37,2023-09-18 18:41:39,1.506s,PASSED
"verifyElementText(findTestObject(""Object Repository/or1_Website/orw2_login/Page_Masuk untuk dapatkan akses di Coding.ID/small_Email atau kata sandi salah""), ""Email atau kata sandi salah"", CONTINUE_ON_FAILURE)",Chrome 117.0.0.0,,,2023-09-18 18:41:39,2023-09-18 18:41:40,0.741s,PASSED
closeBrowser(),Chrome 117.0.0.0,,,2023-09-18 18:41:40,2023-09-18 18:41:41,1.522s,PASSED
,,,,,,,
Test Cases/tc1_Website/w2_login/wl4_Login menggunakan data email yang tidak valid dan password yang tidak valid,Chrome 117.0.0.0,,,2023-09-18 18:41:41,2023-09-18 18:41:59,17.498s,PASSED
"openBrowser("""")",Chrome 117.0.0.0,,,2023-09-18 18:41:42,2023-09-18 18:41:44,2.247s,PASSED
deleteAllCookies(),Chrome 117.0.0.0,,,2023-09-18 18:41:44,2023-09-18 18:41:44,0.044s,PASSED
maximizeWindow(),Chrome 117.0.0.0,,,2023-09-18 18:41:44,2023-09-18 18:41:44,0.243s,PASSED
"navigateToUrl(""https://demo-app.online/"")",Chrome 117.0.0.0,,,2023-09-18 18:41:44,2023-09-18 18:41:53,8.413s,PASSED
"click(findTestObject(""Object Repository/or1_Website/orw2_login/Page_Be a Profressional Talent with Coding.ID/a_Masuk""))",Chrome 117.0.0.0,,,2023-09-18 18:41:53,2023-09-18 18:41:55,1.966s,PASSED
"setText(findTestObject(""Object Repository/or1_Website/orw2_login/Page_Masuk untuk dapatkan akses di Coding.ID/input_Email_email""), ""adinatarezawahyu123456@gmail.com"")",Chrome 117.0.0.0,,,2023-09-18 18:41:55,2023-09-18 18:41:56,0.813s,PASSED
"setEncryptedText(findTestObject(""Object Repository/or1_Website/orw2_login/Page_Masuk untuk dapatkan akses di Coding.ID/input_Kata                                 _98da12""), ""Gz08DaJU9NVjODvbJ/o9Uw=="")",Chrome 117.0.0.0,,,2023-09-18 18:41:56,2023-09-18 18:41:56,0.542s,PASSED
"click(findTestObject(""Object Repository/or1_Website/orw2_login/Page_Masuk untuk dapatkan akses di Coding.ID/button_Login""))",Chrome 117.0.0.0,,,2023-09-18 18:41:56,2023-09-18 18:41:57,1.244s,PASSED
"verifyElementText(findTestObject(""Object Repository/or1_Website/orw2_login/Page_Masuk untuk dapatkan akses di Coding.ID/small_Email atau kata sandi salah""), ""Email atau kata sandi salah"", CONTINUE_ON_FAILURE)",Chrome 117.0.0.0,,,2023-09-18 18:41:57,2023-09-18 18:41:58,0.636s,PASSED
closeBrowser(),Chrome 117.0.0.0,,,2023-09-18 18:41:58,2023-09-18 18:41:59,0.679s,PASSED
,,,,,,,
Test Cases/tc1_Website/w2_login/wl5_Login menggunakan data User ID valid dan Password yang valid,Chrome 117.0.0.0,,,2023-09-18 18:41:59,2023-09-18 18:42:10,11.318s,PASSED
"openBrowser("""")",Chrome 117.0.0.0,,,2023-09-18 18:41:59,2023-09-18 18:42:01,1.625s,PASSED
deleteAllCookies(),Chrome 117.0.0.0,,,2023-09-18 18:42:01,2023-09-18 18:42:01,0.026s,PASSED
maximizeWindow(),Chrome 117.0.0.0,,,2023-09-18 18:42:01,2023-09-18 18:42:01,0.148s,PASSED
"navigateToUrl(""https://demo-app.online/"")",Chrome 117.0.0.0,,,2023-09-18 18:42:01,2023-09-18 18:42:04,3.136s,PASSED
"click(findTestObject(""Object Repository/or1_Website/orw2_login/Page_Be a Profressional Talent with Coding.ID/a_Masuk""))",Chrome 117.0.0.0,,,2023-09-18 18:42:04,2023-09-18 18:42:06,1.605s,PASSED
"setText(findTestObject(""Object Repository/or1_Website/orw2_login/Page_Masuk untuk dapatkan akses di Coding.ID/input_Email_email""), email)",Chrome 117.0.0.0,,,2023-09-18 18:42:06,2023-09-18 18:42:07,1.227s,PASSED
"setEncryptedText(findTestObject(""Object Repository/or1_Website/orw2_login/Page_Masuk untuk dapatkan akses di Coding.ID/input_Kata                                 _98da12""), password)",Chrome 117.0.0.0,,,2023-09-18 18:42:07,2023-09-18 18:42:08,0.499s,PASSED
"click(findTestObject(""Object Repository/or1_Website/orw2_login/Page_Masuk untuk dapatkan akses di Coding.ID/button_Login""))",Chrome 117.0.0.0,,,2023-09-18 18:42:08,2023-09-18 18:42:09,1.223s,PASSED
"verifyElementText(findTestObject(""Object Repository/or1_Website/orw2_login/Page_Be a Profressional Talent with Coding.ID/h5_Bootcamp untuk semua,            dengan _5cbf2e""), ""Bootcamp untuk semua, dengan background IT maupun Non-IT. Pilih programnya dan dapatkan jaminan kerja."", CONTINUE_ON_FAILURE)",Chrome 117.0.0.0,,,2023-09-18 18:42:09,2023-09-18 18:42:09,0.628s,PASSED
closeBrowser(),Chrome 117.0.0.0,,,2023-09-18 18:42:09,2023-09-18 18:42:10,0.733s,PASSED
,,,,,,,
Test Cases/tc1_Website/w2_login/wl5_Login menggunakan data User ID valid dan Password yang valid,Chrome 117.0.0.0,,,2023-09-18 18:42:10,2023-09-18 18:42:20,9.666s,PASSED
"openBrowser("""")",Chrome 117.0.0.0,,,2023-09-18 18:42:10,2023-09-18 18:42:12,1.442s,PASSED
deleteAllCookies(),Chrome 117.0.0.0,,,2023-09-18 18:42:12,2023-09-18 18:42:12,0.025s,PASSED
maximizeWindow(),Chrome 117.0.0.0,,,2023-09-18 18:42:12,2023-09-18 18:42:12,0.148s,PASSED
"navigateToUrl(""https://demo-app.online/"")",Chrome 117.0.0.0,,,2023-09-18 18:42:12,2023-09-18 18:42:15,2.746s,PASSED
"click(findTestObject(""Object Repository/or1_Website/orw2_login/Page_Be a Profressional Talent with Coding.ID/a_Masuk""))",Chrome 117.0.0.0,,,2023-09-18 18:42:15,2023-09-18 18:42:16,0.905s,PASSED
"setText(findTestObject(""Object Repository/or1_Website/orw2_login/Page_Masuk untuk dapatkan akses di Coding.ID/input_Email_email""), email)",Chrome 117.0.0.0,,,2023-09-18 18:42:16,2023-09-18 18:42:17,1.055s,PASSED
"setEncryptedText(findTestObject(""Object Repository/or1_Website/orw2_login/Page_Masuk untuk dapatkan akses di Coding.ID/input_Kata                                 _98da12""), password)",Chrome 117.0.0.0,,,2023-09-18 18:42:17,2023-09-18 18:42:17,0.430s,PASSED
"click(findTestObject(""Object Repository/or1_Website/orw2_login/Page_Masuk untuk dapatkan akses di Coding.ID/button_Login""))",Chrome 117.0.0.0,,,2023-09-18 18:42:17,2023-09-18 18:42:19,1.459s,PASSED
"verifyElementText(findTestObject(""Object Repository/or1_Website/orw2_login/Page_Be a Profressional Talent with Coding.ID/h5_Bootcamp untuk semua,            dengan _5cbf2e""), ""Bootcamp untuk semua, dengan background IT maupun Non-IT. Pilih programnya dan dapatkan jaminan kerja."", CONTINUE_ON_FAILURE)",Chrome 117.0.0.0,,,2023-09-18 18:42:19,2023-09-18 18:42:19,0.723s,PASSED
closeBrowser(),Chrome 117.0.0.0,,,2023-09-18 18:42:19,2023-09-18 18:42:20,0.711s,PASSED
,,,,,,,
Test Cases/tc1_Website/w2_login/wl5_Login menggunakan data User ID valid dan Password yang valid,Chrome 117.0.0.0,,,2023-09-18 18:42:20,2023-09-18 18:42:29,8.912s,PASSED
"openBrowser("""")",Chrome 117.0.0.0,,,2023-09-18 18:42:20,2023-09-18 18:42:21,1.385s,PASSED
deleteAllCookies(),Chrome 117.0.0.0,,,2023-09-18 18:42:21,2023-09-18 18:42:21,0.025s,PASSED
maximizeWindow(),Chrome 117.0.0.0,,,2023-09-18 18:42:21,2023-09-18 18:42:22,0.149s,PASSED
"navigateToUrl(""https://demo-app.online/"")",Chrome 117.0.0.0,,,2023-09-18 18:42:22,2023-09-18 18:42:23,1.840s,PASSED
"click(findTestObject(""Object Repository/or1_Website/orw2_login/Page_Be a Profressional Talent with Coding.ID/a_Masuk""))",Chrome 117.0.0.0,,,2023-09-18 18:42:23,2023-09-18 18:42:24,1.066s,PASSED
"setText(findTestObject(""Object Repository/or1_Website/orw2_login/Page_Masuk untuk dapatkan akses di Coding.ID/input_Email_email""), email)",Chrome 117.0.0.0,,,2023-09-18 18:42:24,2023-09-18 18:42:26,1.246s,PASSED
"setEncryptedText(findTestObject(""Object Repository/or1_Website/orw2_login/Page_Masuk untuk dapatkan akses di Coding.ID/input_Kata                                 _98da12""), password)",Chrome 117.0.0.0,,,2023-09-18 18:42:26,2023-09-18 18:42:26,0.414s,PASSED
"click(findTestObject(""Object Repository/or1_Website/orw2_login/Page_Masuk untuk dapatkan akses di Coding.ID/button_Login""))",Chrome 117.0.0.0,,,2023-09-18 18:42:26,2023-09-18 18:42:27,1.364s,PASSED
"verifyElementText(findTestObject(""Object Repository/or1_Website/orw2_login/Page_Be a Profressional Talent with Coding.ID/h5_Bootcamp untuk semua,            dengan _5cbf2e""), ""Bootcamp untuk semua, dengan background IT maupun Non-IT. Pilih programnya dan dapatkan jaminan kerja."", CONTINUE_ON_FAILURE)",Chrome 117.0.0.0,,,2023-09-18 18:42:27,2023-09-18 18:42:28,0.716s,PASSED
closeBrowser(),Chrome 117.0.0.0,,,2023-09-18 18:42:28,2023-09-18 18:42:29,0.697s,PASSED
,,,,,,,
Test Cases/tc1_Website/w2_login/wl5_Login menggunakan data User ID valid dan Password yang valid,Chrome 117.0.0.0,,,2023-09-18 18:42:29,2023-09-18 18:42:39,9.992s,PASSED
"openBrowser("""")",Chrome 117.0.0.0,,,2023-09-18 18:42:29,2023-09-18 18:42:30,1.463s,PASSED
deleteAllCookies(),Chrome 117.0.0.0,,,2023-09-18 18:42:30,2023-09-18 18:42:30,0.022s,PASSED
maximizeWindow(),Chrome 117.0.0.0,,,2023-09-18 18:42:30,2023-09-18 18:42:31,0.134s,PASSED
"navigateToUrl(""https://demo-app.online/"")",Chrome 117.0.0.0,,,2023-09-18 18:42:31,2023-09-18 18:42:32,1.544s,PASSED
"click(findTestObject(""Object Repository/or1_Website/orw2_login/Page_Be a Profressional Talent with Coding.ID/a_Masuk""))",Chrome 117.0.0.0,,,2023-09-18 18:42:32,2023-09-18 18:42:33,1.369s,PASSED
"setText(findTestObject(""Object Repository/or1_Website/orw2_login/Page_Masuk untuk dapatkan akses di Coding.ID/input_Email_email""), email)",Chrome 117.0.0.0,,,2023-09-18 18:42:33,2023-09-18 18:42:34,0.839s,PASSED
"setEncryptedText(findTestObject(""Object Repository/or1_Website/orw2_login/Page_Masuk untuk dapatkan akses di Coding.ID/input_Kata                                 _98da12""), password)",Chrome 117.0.0.0,,,2023-09-18 18:42:34,2023-09-18 18:42:35,0.493s,PASSED
"click(findTestObject(""Object Repository/or1_Website/orw2_login/Page_Masuk untuk dapatkan akses di Coding.ID/button_Login""))",Chrome 117.0.0.0,,,2023-09-18 18:42:35,2023-09-18 18:42:37,2.541s,PASSED
"verifyElementText(findTestObject(""Object Repository/or1_Website/orw2_login/Page_Be a Profressional Talent with Coding.ID/h5_Bootcamp untuk semua,            dengan _5cbf2e""), ""Bootcamp untuk semua, dengan background IT maupun Non-IT. Pilih programnya dan dapatkan jaminan kerja."", CONTINUE_ON_FAILURE)",Chrome 117.0.0.0,,,2023-09-18 18:42:37,2023-09-18 18:42:38,0.817s,PASSED
closeBrowser(),Chrome 117.0.0.0,,,2023-09-18 18:42:38,2023-09-18 18:42:39,0.756s,PASSED
,,,,,,,
Test Cases/tc1_Website/w2_login/wl6_Login menggunakan data kosong,Chrome 117.0.0.0,,,2023-09-18 18:42:39,2023-09-18 18:42:49,9.892s,PASSED
"openBrowser("""")",Chrome 117.0.0.0,,,2023-09-18 18:42:40,2023-09-18 18:42:41,1.629s,PASSED
deleteAllCookies(),Chrome 117.0.0.0,,,2023-09-18 18:42:41,2023-09-18 18:42:41,0.023s,PASSED
maximizeWindow(),Chrome 117.0.0.0,,,2023-09-18 18:42:41,2023-09-18 18:42:41,0.150s,PASSED
"navigateToUrl(""https://demo-app.online/"")",Chrome 117.0.0.0,,,2023-09-18 18:42:41,2023-09-18 18:42:45,3.958s,PASSED
"click(findTestObject(""Object Repository/or1_Website/orw2_login/Page_Be a Profressional Talent with Coding.ID/a_Masuk""))",Chrome 117.0.0.0,,,2023-09-18 18:42:45,2023-09-18 18:42:47,1.817s,PASSED
"click(findTestObject(""Object Repository/or1_Website/orw2_login/Page_Masuk untuk dapatkan akses di Coding.ID/button_Login""))",Chrome 117.0.0.0,,,2023-09-18 18:42:47,2023-09-18 18:42:48,0.536s,PASSED
"verifyTextNotPresent(""Please fill out this field"", false)",Chrome 117.0.0.0,,,2023-09-18 18:42:48,2023-09-18 18:42:48,0.376s,PASSED
closeBrowser(),Chrome 117.0.0.0,,,2023-09-18 18:42:48,2023-09-18 18:42:49,0.672s,PASSED
,,,,,,,
Test Cases/tc1_Website/w2_login/wl7_Mengecek Tombol Lupa Kata Sandi,Chrome 117.0.0.0,,,2023-09-18 18:42:49,2023-09-18 18:42:58,8.792s,PASSED
"openBrowser("""")",Chrome 117.0.0.0,,,2023-09-18 18:42:49,2023-09-18 18:42:51,1.553s,PASSED
deleteAllCookies(),Chrome 117.0.0.0,,,2023-09-18 18:42:51,2023-09-18 18:42:51,0.021s,PASSED
maximizeWindow(),Chrome 117.0.0.0,,,2023-09-18 18:42:51,2023-09-18 18:42:51,0.160s,PASSED
"navigateToUrl(""https://demo-app.online/"")",Chrome 117.0.0.0,,,2023-09-18 18:42:51,2023-09-18 18:42:53,1.951s,PASSED
"click(findTestObject(""Object Repository/or1_Website/orw2_login/Page_Be a Profressional Talent with Coding.ID/a_Masuk""))",Chrome 117.0.0.0,,,2023-09-18 18:42:53,2023-09-18 18:42:55,1.562s,PASSED
"click(findTestObject(""Object Repository/or1_Website/orw2_login/Page_Masuk untuk dapatkan akses di Coding.ID/a_Lupa kata sandi""))",Chrome 117.0.0.0,,,2023-09-18 18:42:55,2023-09-18 18:42:56,1.252s,PASSED
"verifyElementVisible(findTestObject(""Object Repository/or1_Website/orw2_login/Page_Lupa password akun Coding.ID kamu Rese_b3cffc/h1_Lupa Kata Sandi""))",Chrome 117.0.0.0,,,2023-09-18 18:42:56,2023-09-18 18:42:57,0.730s,PASSED
"verifyElementText(findTestObject(""Object Repository/or1_Website/orw2_login/Page_Lupa password akun Coding.ID kamu Rese_b3cffc/p_Kami akan mengirimkan link untuk mengatur_3f9d9a""), ""Kami akan mengirimkan link untuk mengatur ulang kata sandi anda silahkan masukan E-mail anda yang terdaftar di bawah."")",Chrome 117.0.0.0,,,2023-09-18 18:42:57,2023-09-18 18:42:57,0.375s,PASSED
closeBrowser(),Chrome 117.0.0.0,,,2023-09-18 18:42:57,2023-09-18 18:42:58,0.673s,PASSED
,,,,,,,
Test Cases/tc1_Website/w2_login/wl8_Lupa kata sandi menggunakan email yang tidak valid,Chrome 117.0.0.0,,,2023-09-18 18:42:58,2023-09-18 18:43:12,13.869s,PASSED
"openBrowser("""")",Chrome 117.0.0.0,,,2023-09-18 18:42:58,2023-09-18 18:43:00,1.460s,PASSED
deleteAllCookies(),Chrome 117.0.0.0,,,2023-09-18 18:43:00,2023-09-18 18:43:00,0.024s,PASSED
maximizeWindow(),Chrome 117.0.0.0,,,2023-09-18 18:43:00,2023-09-18 18:43:00,0.149s,PASSED
"navigateToUrl(""https://demo-app.online/"")",Chrome 117.0.0.0,,,2023-09-18 18:43:00,2023-09-18 18:43:02,1.926s,PASSED
"click(findTestObject(""Object Repository/or1_Website/orw2_login/Page_Be a Profressional Talent with Coding.ID/a_Masuk""))",Chrome 117.0.0.0,,,2023-09-18 18:43:02,2023-09-18 18:43:03,1.259s,PASSED
"click(findTestObject(""Object Repository/or1_Website/orw2_login/Page_Masuk untuk dapatkan akses di Coding.ID/a_Lupa kata sandi""))",Chrome 117.0.0.0,,,2023-09-18 18:43:03,2023-09-18 18:43:06,3.367s,PASSED
"setText(findTestObject(""Object Repository/or1_Website/orw2_login/Page_Lupa password akun Coding.ID kamu Rese_b3cffc/input_Lupa Kata Sandi_email""), ""adinatarezawahyu123456@gmail.com"")",Chrome 117.0.0.0,,,2023-09-18 18:43:06,2023-09-18 18:43:08,1.754s,PASSED
"click(findTestObject(""Object Repository/or1_Website/orw2_login/Page_Lupa password akun Coding.ID kamu Rese_b3cffc/button_Kirim link""))",Chrome 117.0.0.0,,,2023-09-18 18:43:08,2023-09-18 18:43:09,1.324s,PASSED
"verifyElementVisible(findTestObject(""Object Repository/or1_Website/orw2_login/Page_Lupa password akun Coding.ID kamu Rese_b3cffc/strong_User tidak ditemukan""))",Chrome 117.0.0.0,,,2023-09-18 18:43:09,2023-09-18 18:43:10,0.747s,PASSED
"verifyElementText(findTestObject(""Object Repository/or1_Website/orw2_login/Page_Lupa password akun Coding.ID kamu Rese_b3cffc/strong_User tidak ditemukan""), ""User tidak ditemukan"")",Chrome 117.0.0.0,,,2023-09-18 18:43:10,2023-09-18 18:43:11,0.498s,PASSED
closeBrowser(),Chrome 117.0.0.0,,,2023-09-18 18:43:11,2023-09-18 18:43:12,0.892s,PASSED
,,,,,,,
Test Cases/tc1_Website/w2_login/wl9_Lupa kata sandi menggunakan email yang valid,Chrome 117.0.0.0,,,2023-09-18 18:43:12,2023-09-18 18:43:25,13.397s,PASSED
"openBrowser("""")",Chrome 117.0.0.0,,,2023-09-18 18:43:12,2023-09-18 18:43:13,1.476s,PASSED
deleteAllCookies(),Chrome 117.0.0.0,,,2023-09-18 18:43:13,2023-09-18 18:43:14,0.024s,PASSED
maximizeWindow(),Chrome 117.0.0.0,,,2023-09-18 18:43:14,2023-09-18 18:43:14,0.148s,PASSED
"navigateToUrl(""https://demo-app.online/"")",Chrome 117.0.0.0,,,2023-09-18 18:43:14,2023-09-18 18:43:17,3.404s,PASSED
"click(findTestObject(""Object Repository/or1_Website/orw2_login/Page_Be a Profressional Talent with Coding.ID/a_Masuk""))",Chrome 117.0.0.0,,,2023-09-18 18:43:17,2023-09-18 18:43:19,1.654s,PASSED
"click(findTestObject(""Object Repository/or1_Website/orw2_login/Page_Masuk untuk dapatkan akses di Coding.ID/a_Lupa kata sandi""))",Chrome 117.0.0.0,,,2023-09-18 18:43:19,2023-09-18 18:43:20,0.859s,PASSED
"setText(findTestObject(""Object Repository/or1_Website/orw2_login/Page_Lupa password akun Coding.ID kamu Rese_b3cffc/input_Lupa Kata Sandi_email""), ""adinatarezawahyu@gmail.com"")",Chrome 117.0.0.0,,,2023-09-18 18:43:20,2023-09-18 18:43:21,1.135s,PASSED
"click(findTestObject(""Object Repository/or1_Website/orw2_login/Page_Lupa password akun Coding.ID kamu Rese_b3cffc/button_Kirim link""))",Chrome 117.0.0.0,,,2023-09-18 18:43:21,2023-09-18 18:43:23,1.946s,PASSED
"verifyElementVisible(findTestObject(""Object Repository/or1_Website/orw2_login/Page_Lupa password akun Coding.ID kamu Rese_b3cffc/p_Kami telah mengirimkan link untuk mengatu_b391b1""))",Chrome 117.0.0.0,,,2023-09-18 18:43:23,2023-09-18 18:43:23,0.789s,PASSED
"verifyElementText(findTestObject(""Object Repository/or1_Website/orw2_login/Page_Lupa password akun Coding.ID kamu Rese_b3cffc/p_Kami telah mengirimkan link untuk mengatu_b391b1""), ""Kami telah mengirimkan link untuk mengatur ulang kata sandi anda.
Silahkan periksa email anda"")",Chrome 117.0.0.0,,,2023-09-18 18:43:23,2023-09-18 18:43:24,0.736s,PASSED
closeBrowser(),Chrome 117.0.0.0,,,2023-09-18 18:43:24,2023-09-18 18:43:25,0.732s,PASSED
