Suite/Test/Step Name,Browser,Description,Tag,Start time,End time,Duration,Status
ts8_api_loginAsUser,,,,2023-09-18 18:39:46,2023-09-18 18:40:04,17.721s,PASSED
,,,,,,,
Test Cases/tc3_API/p1_login/al1_email kosong,,,,2023-09-18 18:39:46,2023-09-18 18:39:51,4.786s,PASSED
"sendRequestAndVerify(findTestObject(""or3_API/ora1_login/a1-login"", [""email"":"""", ""password"":""rezawahyu123""]))",,,,2023-09-18 18:39:47,2023-09-18 18:39:51,4.332s,PASSED
,,,,,,,
Test Cases/tc3_API/p1_login/al2_password kosong,,,,2023-09-18 18:39:51,2023-09-18 18:39:52,1.307s,PASSED
"sendRequestAndVerify(findTestObject(""or3_API/ora1_login/a1-login"", [""email"":""adinatarezawahyu@gmail.com"", ""password"":""""]))",,,,2023-09-18 18:39:52,2023-09-18 18:39:52,0.760s,PASSED
,,,,,,,
Test Cases/tc3_API/p1_login/al3_email dan password kosong,,,,2023-09-18 18:39:52,2023-09-18 18:39:53,0.860s,PASSED
"sendRequestAndVerify(findTestObject(""or3_API/ora1_login/a1-login"", [""email"":"""", ""password"":""""]))",,,,2023-09-18 18:39:53,2023-09-18 18:39:53,0.530s,PASSED
,,,,,,,
Test Cases/tc3_API/p1_login/al4_email salah dan password valid,,,,2023-09-18 18:39:53,2023-09-18 18:39:54,0.915s,PASSED
"sendRequestAndVerify(findTestObject(""or3_API/ora1_login/a1-login"", [""email"":""hermawansuherman@gmail.com"", ""password"":""rezawahyu123""]))",,,,2023-09-18 18:39:54,2023-09-18 18:39:54,0.565s,PASSED
,,,,,,,
Test Cases/tc3_API/p1_login/al5_password salah dan email valid,,,,2023-09-18 18:39:54,2023-09-18 18:39:55,1.090s,PASSED
"sendRequestAndVerify(findTestObject(""or3_API/ora1_login/a1-login"", [""email"":""adinatarezawahyu@gmail.com"", ""password"":""rezawahyu123456789""]))",,,,2023-09-18 18:39:55,2023-09-18 18:39:55,0.739s,PASSED
,,,,,,,
Test Cases/tc3_API/p1_login/al6_email dan password tidak valid,,,,2023-09-18 18:39:55,2023-09-18 18:39:56,0.856s,PASSED
"sendRequestAndVerify(findTestObject(""or3_API/ora1_login/a1-login"", [""email"":""andrikopling@gmail.com"", ""password"":""andri123""]))",,,,2023-09-18 18:39:56,2023-09-18 18:39:56,0.512s,PASSED
,,,,,,,
Test Cases/tc3_API/p1_login/al7_email dan password valid,,,,2023-09-18 18:39:56,2023-09-18 18:39:57,1.018s,PASSED
"sendRequestAndVerify(findTestObject(""or3_API/ora1_login/a1-login"", [""email"":email, ""password"":password]))",,,,2023-09-18 18:39:56,2023-09-18 18:39:57,0.694s,PASSED
,,,,,,,
Test Cases/tc3_API/p1_login/al7_email dan password valid,,,,2023-09-18 18:39:57,2023-09-18 18:39:58,0.628s,PASSED
"sendRequestAndVerify(findTestObject(""or3_API/ora1_login/a1-login"", [""email"":email, ""password"":password]))",,,,2023-09-18 18:39:57,2023-09-18 18:39:58,0.621s,PASSED
,,,,,,,
Test Cases/tc3_API/p1_login/al7_email dan password valid,,,,2023-09-18 18:39:58,2023-09-18 18:39:58,0.546s,PASSED
"sendRequestAndVerify(findTestObject(""or3_API/ora1_login/a1-login"", [""email"":email, ""password"":password]))",,,,2023-09-18 18:39:58,2023-09-18 18:39:58,0.540s,PASSED
,,,,,,,
Test Cases/tc3_API/p1_login/al7_email dan password valid,,,,2023-09-18 18:39:58,2023-09-18 18:39:59,0.578s,PASSED
"sendRequestAndVerify(findTestObject(""or3_API/ora1_login/a1-login"", [""email"":email, ""password"":password]))",,,,2023-09-18 18:39:58,2023-09-18 18:39:59,0.558s,PASSED
,,,,,,,
Test Cases/tc3_API/p1_login/al8_melakukan authentikasi berulang,,,,2023-09-18 18:39:59,2023-09-18 18:40:04,4.698s,PASSED
"request_data = [[""email"":""adinatarezawahyu@gmail.com"", ""password"":""rezawahyu123""], [""email"":""adinatarezawahyu@gmail.com"", ""password"":""rezawahyu123""], [""email"":""adinatarezawahyu@gmail.com"", ""password"":""rezawahyu123""], [""email"":""adinatarezawahyu@gmail.com"", ""password"":""rezawahyu123""], [""email"":""adinatarezawahyu@gmail.com"", ""password"":""rezawahyu123""], [""email"":""adinatarezawahyu@gmail.com"", ""password"":""rezawahyu123""]]",,,,2023-09-18 18:39:59,2023-09-18 18:39:59,0.001s,PASSED
for (def data : request_data),,,,2023-09-18 18:39:59,2023-09-18 18:40:04,4.386s,PASSED
