Suite/Test/Step Name,Browser,Description,Tag,Start time,End time,Duration,Status
ts7_mobile_changeProfile,,,,2023-09-20 12:35:34,2023-09-20 13:02:06,26m - 31.440s,PASSED
,,,,,,,
Test Cases/tc2_Mobile/m3_changeProfile/mp10_Mengedit nomor telephone kurang dari 9,,,,2023-09-20 12:35:35,2023-09-20 12:37:32,1m - 57.664s,PASSED
auth.Authenticate.performLoginProfileMobile(),,,,2023-09-20 12:35:35,2023-09-20 12:36:08,32.308s,PASSED
"tap(findTestObject(""Object Repository/or2_Mobile/orm3_updateProfile/Home/Button - Profile""), 0)",,,,2023-09-20 12:36:08,2023-09-20 12:36:38,30.229s,PASSED
"tap(findTestObject(""Object Repository/or2_Mobile/orm3_updateProfile/Home/Button - Settings""), 0)",,,,2023-09-20 12:36:38,2023-09-20 12:36:39,1.034s,PASSED
"tap(findTestObject(""Object Repository/or2_Mobile/orm3_updateProfile/Home/Button - Edit Profile""), 0)",,,,2023-09-20 12:36:39,2023-09-20 12:36:40,1.515s,PASSED
"tap(findTestObject(""Object Repository/or2_Mobile/orm3_updateProfile/EditProfile/Phone/Input - Phone""), 0)",,,,2023-09-20 12:36:40,2023-09-20 12:36:43,2.791s,PASSED
"sendKeys(findTestObject(""Object Repository/or2_Mobile/orm3_updateProfile/EditProfile/Phone/Input - Phone""), ""0813854"", STOP_ON_FAILURE)",,,,2023-09-20 12:36:43,2023-09-20 12:36:44,0.404s,PASSED
pressBack(),,,,2023-09-20 12:36:44,2023-09-20 12:36:45,1.188s,PASSED
"delay(5, STOP_ON_FAILURE)",,,,2023-09-20 12:36:45,2023-09-20 12:36:50,5.028s,PASSED
pressBack(),,,,2023-09-20 12:36:50,2023-09-20 12:36:50,0.172s,PASSED
"delay(5, STOP_ON_FAILURE)",,,,2023-09-20 12:36:50,2023-09-20 12:36:55,5.014s,PASSED
pressBack(),,,,2023-09-20 12:36:55,2023-09-20 12:36:55,0.189s,PASSED
"delay(5, STOP_ON_FAILURE)",,,,2023-09-20 12:36:55,2023-09-20 12:37:00,5.018s,PASSED
auth.Authenticate.performLogOutProfileMobile(),,,,2023-09-20 12:37:00,2023-09-20 12:37:32,32.225s,PASSED
,,,,,,,
Test Cases/tc2_Mobile/m3_changeProfile/mp11_Mengedit nomor telephone lebih dari 13,,,,2023-09-20 12:37:32,2023-09-20 12:39:20,1m - 47.218s,PASSED
auth.Authenticate.performLoginProfileMobile(),,,,2023-09-20 12:37:33,2023-09-20 12:37:55,22.075s,PASSED
"tap(findTestObject(""Object Repository/or2_Mobile/orm3_updateProfile/Home/Button - Profile""), 0)",,,,2023-09-20 12:37:55,2023-09-20 12:38:25,30.280s,PASSED
"tap(findTestObject(""Object Repository/or2_Mobile/orm3_updateProfile/Home/Button - Settings""), 0)",,,,2023-09-20 12:38:25,2023-09-20 12:38:26,0.865s,PASSED
"tap(findTestObject(""Object Repository/or2_Mobile/orm3_updateProfile/Home/Button - Edit Profile""), 0)",,,,2023-09-20 12:38:26,2023-09-20 12:38:28,1.408s,PASSED
"tap(findTestObject(""Object Repository/or2_Mobile/orm3_updateProfile/EditProfile/Phone/Input - Phone""), 0)",,,,2023-09-20 12:38:28,2023-09-20 12:38:30,2.600s,PASSED
"sendKeys(findTestObject(""Object Repository/or2_Mobile/orm3_updateProfile/EditProfile/Phone/Input - Phone""), ""081385484594321"", STOP_ON_FAILURE)",,,,2023-09-20 12:38:30,2023-09-20 12:38:31,1.098s,PASSED
pressBack(),,,,2023-09-20 12:38:31,2023-09-20 12:38:32,0.867s,PASSED
"delay(5, STOP_ON_FAILURE)",,,,2023-09-20 12:38:32,2023-09-20 12:38:37,5.017s,PASSED
pressBack(),,,,2023-09-20 12:38:37,2023-09-20 12:38:37,0.169s,PASSED
"delay(5, STOP_ON_FAILURE)",,,,2023-09-20 12:38:37,2023-09-20 12:38:42,5.013s,PASSED
pressBack(),,,,2023-09-20 12:38:42,2023-09-20 12:38:42,0.174s,PASSED
"delay(5, STOP_ON_FAILURE)",,,,2023-09-20 12:38:42,2023-09-20 12:38:47,5.008s,PASSED
auth.Authenticate.performLogOutProfileMobile(),,,,2023-09-20 12:38:47,2023-09-20 12:39:20,32.210s,PASSED
,,,,,,,
Test Cases/tc2_Mobile/m3_changeProfile/mp12_Mengedit date lahir menggunakan data yang valid,,,,2023-09-20 12:39:20,2023-09-20 12:40:59,1m - 39.497s,PASSED
auth.Authenticate.performLoginProfileMobile(),,,,2023-09-20 12:39:20,2023-09-20 12:39:39,18.942s,PASSED
"tap(findTestObject(""Object Repository/or2_Mobile/orm3_updateProfile/Home/Button - Profile""), 0)",,,,2023-09-20 12:39:39,2023-09-20 12:40:10,30.424s,PASSED
"tap(findTestObject(""Object Repository/or2_Mobile/orm3_updateProfile/Home/Button - Settings""), 0)",,,,2023-09-20 12:40:10,2023-09-20 12:40:11,1.143s,PASSED
"tap(findTestObject(""Object Repository/or2_Mobile/orm3_updateProfile/Home/Button - Edit Profile""), 0)",,,,2023-09-20 12:40:11,2023-09-20 12:40:12,1.184s,PASSED
"tap(findTestObject(""Object Repository/or2_Mobile/orm3_updateProfile/EditProfile/Date/Input - BirthDate""), 0)",,,,2023-09-20 12:40:12,2023-09-20 12:40:14,2.576s,PASSED
"tap(findTestObject(""Object Repository/or2_Mobile/orm3_updateProfile/EditProfile/Date/Button - Tahun (date)""), 0)",,,,2023-09-20 12:40:14,2023-09-20 12:40:15,0.865s,PASSED
"tap(findTestObject(""Object Repository/or2_Mobile/orm3_updateProfile/EditProfile/Date/Tgl - 3""), 0)",,,,2023-09-20 12:40:15,2023-09-20 12:40:16,0.858s,PASSED
"tap(findTestObject(""Object Repository/or2_Mobile/orm3_updateProfile/EditProfile/Date/Button - Ok (Date)""), 0)",,,,2023-09-20 12:40:16,2023-09-20 12:40:16,0.254s,PASSED
"tap(findTestObject(""Object Repository/or2_Mobile/orm3_updateProfile/EditProfile/Button - Save Changes""), 0)",,,,2023-09-20 12:40:16,2023-09-20 12:40:17,0.873s,PASSED
"delay(5, STOP_ON_FAILURE)",,,,2023-09-20 12:40:17,2023-09-20 12:40:22,5.006s,PASSED
"tap(findTestObject(""or2_Mobile/orm3_updateProfile/EditProfile/Button - Confimation Okay (save changes)""), 0)",,,,2023-09-20 12:40:22,2023-09-20 12:40:22,0.219s,PASSED
"delay(5, STOP_ON_FAILURE)",,,,2023-09-20 12:40:22,2023-09-20 12:40:27,5.007s,PASSED
auth.Authenticate.performLogOutProfileMobile(),,,,2023-09-20 12:40:27,2023-09-20 12:40:59,31.687s,PASSED
,,,,,,,
Test Cases/tc2_Mobile/m3_changeProfile/mp13_Mengedit date lahir secara kosong,,,,2023-09-20 12:40:59,2023-09-20 12:42:32,1m - 33.016s,PASSED
auth.Authenticate.performLoginProfileMobile(),,,,2023-09-20 12:41:00,2023-09-20 12:41:19,19.652s,PASSED
"tap(findTestObject(""Object Repository/or2_Mobile/orm3_updateProfile/Home/Button - Profile""), 0)",,,,2023-09-20 12:41:19,2023-09-20 12:41:50,30.212s,PASSED
"tap(findTestObject(""Object Repository/or2_Mobile/orm3_updateProfile/Home/Button - Settings""), 0)",,,,2023-09-20 12:41:50,2023-09-20 12:41:51,1.832s,PASSED
"tap(findTestObject(""Object Repository/or2_Mobile/orm3_updateProfile/Home/Button - Edit Profile""), 0)",,,,2023-09-20 12:41:51,2023-09-20 12:41:52,0.496s,PASSED
"tap(findTestObject(""Object Repository/or2_Mobile/orm3_updateProfile/EditProfile/Date/Input - BirthDate""), 0)",,,,2023-09-20 12:41:52,2023-09-20 12:41:53,1.392s,PASSED
"tap(findTestObject(""Object Repository/or2_Mobile/orm3_updateProfile/EditProfile/Date/Button - Cancel (Date)""), 0)",,,,2023-09-20 12:41:53,2023-09-20 12:41:55,1.250s,PASSED
"delay(5, STOP_ON_FAILURE)",,,,2023-09-20 12:41:55,2023-09-20 12:42:00,5.008s,PASSED
pressBack(),,,,2023-09-20 12:42:00,2023-09-20 12:42:00,0.724s,PASSED
auth.Authenticate.performLogOutProfileMobile(),,,,2023-09-20 12:42:00,2023-09-20 12:42:32,31.940s,PASSED
,,,,,,,
Test Cases/tc2_Mobile/m3_changeProfile/mp14_Mengganti Password dengan data yang valid,,,,2023-09-20 12:42:32,2023-09-20 12:44:19,1m - 46.821s,PASSED
auth.Authenticate.performLoginProfileMobile(),,,,2023-09-20 12:42:33,2023-09-20 12:42:52,19.731s,PASSED
"tap(findTestObject(""Object Repository/or2_Mobile/orm3_updateProfile/Home/Button - Profile""), 0)",,,,2023-09-20 12:42:52,2023-09-20 12:43:23,30.158s,PASSED
"tap(findTestObject(""Object Repository/or2_Mobile/orm3_updateProfile/Home/Button - Settings""), 0)",,,,2023-09-20 12:43:23,2023-09-20 12:43:24,1.047s,PASSED
"tap(findTestObject(""or2_Mobile/orm3_updateProfile/Home/Button - Change Password""), 0)",,,,2023-09-20 12:43:24,2023-09-20 12:43:25,1.238s,PASSED
"tap(findTestObject(""or2_Mobile/orm3_updateProfile/EditPassword/Old Password""), 0, STOP_ON_FAILURE)",,,,2023-09-20 12:43:25,2023-09-20 12:43:27,2.381s,PASSED
"sendKeys(findTestObject(""or2_Mobile/orm3_updateProfile/EditPassword/Old Password""), ""rezawahyu123"", STOP_ON_FAILURE)",,,,2023-09-20 12:43:27,2023-09-20 12:43:28,0.963s,PASSED
pressBack(),,,,2023-09-20 12:43:28,2023-09-20 12:43:29,1.300s,PASSED
"tap(findTestObject(""or2_Mobile/orm3_updateProfile/EditPassword/New Password""), 0, STOP_ON_FAILURE)",,,,2023-09-20 12:43:29,2023-09-20 12:43:32,2.083s,PASSED
"sendKeys(findTestObject(""or2_Mobile/orm3_updateProfile/EditPassword/New Password""), ""rezawahyu123"", STOP_ON_FAILURE)",,,,2023-09-20 12:43:32,2023-09-20 12:43:32,0.278s,PASSED
pressBack(),,,,2023-09-20 12:43:32,2023-09-20 12:43:33,0.987s,PASSED
"tap(findTestObject(""or2_Mobile/orm3_updateProfile/EditPassword/Confirm Password""), 0, STOP_ON_FAILURE)",,,,2023-09-20 12:43:33,2023-09-20 12:43:35,2.005s,PASSED
"sendKeys(findTestObject(""or2_Mobile/orm3_updateProfile/EditPassword/Confirm Password""), ""rezawahyu123"", STOP_ON_FAILURE)",,,,2023-09-20 12:43:35,2023-09-20 12:43:35,0.341s,PASSED
pressBack(),,,,2023-09-20 12:43:35,2023-09-20 12:43:36,0.941s,PASSED
"delay(5, STOP_ON_FAILURE)",,,,2023-09-20 12:43:36,2023-09-20 12:43:41,5.012s,PASSED
"tap(findTestObject(""Object Repository/or2_Mobile/orm3_updateProfile/EditPassword/Button - Change""), 0)",,,,2023-09-20 12:43:41,2023-09-20 12:43:42,0.390s,PASSED
pressBack(),,,,2023-09-20 12:43:42,2023-09-20 12:43:42,0.715s,PASSED
"delay(5, STOP_ON_FAILURE)",,,,2023-09-20 12:43:42,2023-09-20 12:43:47,5.016s,PASSED
auth.Authenticate.performLogOutProfileMobile(),,,,2023-09-20 12:43:47,2023-09-20 12:44:19,31.779s,PASSED
,,,,,,,
Test Cases/tc2_Mobile/m3_changeProfile/mp15_Mengganti Password dengan old password yang kosong,,,,2023-09-20 12:44:19,2023-09-20 12:46:06,1m - 47.408s,PASSED
auth.Authenticate.performLoginProfileMobile(),,,,2023-09-20 12:44:20,2023-09-20 12:44:40,20.940s,PASSED
"tap(findTestObject(""Object Repository/or2_Mobile/orm3_updateProfile/Home/Button - Profile""), 0)",,,,2023-09-20 12:44:40,2023-09-20 12:45:11,30.183s,PASSED
"tap(findTestObject(""Object Repository/or2_Mobile/orm3_updateProfile/Home/Button - Settings""), 0)",,,,2023-09-20 12:45:11,2023-09-20 12:45:12,0.875s,PASSED
"tap(findTestObject(""or2_Mobile/orm3_updateProfile/Home/Button - Change Password""), 0)",,,,2023-09-20 12:45:12,2023-09-20 12:45:13,1.343s,PASSED
"tap(findTestObject(""or2_Mobile/orm3_updateProfile/EditPassword/Old Password""), 0, STOP_ON_FAILURE)",,,,2023-09-20 12:45:13,2023-09-20 12:45:15,2.340s,PASSED
"sendKeys(findTestObject(""or2_Mobile/orm3_updateProfile/EditPassword/Old Password""), """", STOP_ON_FAILURE)",,,,2023-09-20 12:45:15,2023-09-20 12:45:16,0.919s,PASSED
pressBack(),,,,2023-09-20 12:45:16,2023-09-20 12:45:17,0.716s,PASSED
"tap(findTestObject(""or2_Mobile/orm3_updateProfile/EditPassword/New Password""), 0, STOP_ON_FAILURE)",,,,2023-09-20 12:45:17,2023-09-20 12:45:19,2.146s,PASSED
"sendKeys(findTestObject(""or2_Mobile/orm3_updateProfile/EditPassword/New Password""), ""rezawahyu123"", STOP_ON_FAILURE)",,,,2023-09-20 12:45:19,2023-09-20 12:45:20,0.923s,PASSED
pressBack(),,,,2023-09-20 12:45:20,2023-09-20 12:45:21,0.844s,PASSED
"tap(findTestObject(""or2_Mobile/orm3_updateProfile/EditPassword/Confirm Password""), 0, STOP_ON_FAILURE)",,,,2023-09-20 12:45:21,2023-09-20 12:45:23,2.087s,PASSED
"sendKeys(findTestObject(""or2_Mobile/orm3_updateProfile/EditPassword/Confirm Password""), ""rezawahyu123"", STOP_ON_FAILURE)",,,,2023-09-20 12:45:23,2023-09-20 12:45:24,0.995s,PASSED
pressBack(),,,,2023-09-20 12:45:24,2023-09-20 12:45:25,0.876s,PASSED
"delay(5, STOP_ON_FAILURE)",,,,2023-09-20 12:45:25,2023-09-20 12:45:30,5.008s,PASSED
pressBack(),,,,2023-09-20 12:45:30,2023-09-20 12:45:30,0.188s,PASSED
"delay(5, STOP_ON_FAILURE)",,,,2023-09-20 12:45:30,2023-09-20 12:45:35,5.014s,PASSED
auth.Authenticate.performLogOutProfileMobile(),,,,2023-09-20 12:45:35,2023-09-20 12:46:06,31.514s,PASSED
,,,,,,,
Test Cases/tc2_Mobile/m3_changeProfile/mp1_Mencoba masuk ke dalam menu profile,,,,2023-09-20 12:46:06,2023-09-20 12:47:32,1m - 25.837s,PASSED
auth.Authenticate.performLoginProfileMobile(),,,,2023-09-20 12:46:07,2023-09-20 12:46:25,17.805s,PASSED
"tap(findTestObject(""Object Repository/or2_Mobile/orm3_updateProfile/Home/Button - Profile""), 0)",,,,2023-09-20 12:46:25,2023-09-20 12:46:55,30.238s,PASSED
pressBack(),,,,2023-09-20 12:46:55,2023-09-20 12:46:55,0.197s,PASSED
"delay(5, STOP_ON_FAILURE)",,,,2023-09-20 12:46:55,2023-09-20 12:47:00,5.009s,PASSED
auth.Authenticate.performLogOutProfileMobile(),,,,2023-09-20 12:47:00,2023-09-20 12:47:32,32.168s,PASSED
,,,,,,,
Test Cases/tc2_Mobile/m3_changeProfile/mp2_Pengecekan tombol icon pengaturan pada profile,,,,2023-09-20 12:47:32,2023-09-20 12:49:02,1m - 29.427s,PASSED
auth.Authenticate.performLoginProfileMobile(),,,,2023-09-20 12:47:33,2023-09-20 12:47:52,19.058s,PASSED
"tap(findTestObject(""Object Repository/or2_Mobile/orm3_updateProfile/Home/Button - Profile""), 0)",,,,2023-09-20 12:47:52,2023-09-20 12:48:22,30.217s,PASSED
"tap(findTestObject(""Object Repository/or2_Mobile/orm3_updateProfile/Home/Button - Settings""), 0)",,,,2023-09-20 12:48:22,2023-09-20 12:48:24,1.805s,PASSED
"tap(findTestObject(""Object Repository/or2_Mobile/orm3_updateProfile/Home/Button - Edit Profile""), 0)",,,,2023-09-20 12:48:24,2023-09-20 12:48:24,0.458s,PASSED
pressBack(),,,,2023-09-20 12:48:24,2023-09-20 12:48:25,0.274s,PASSED
"delay(5, STOP_ON_FAILURE)",,,,2023-09-20 12:48:25,2023-09-20 12:48:30,5.007s,PASSED
auth.Authenticate.performLogOutProfileMobile(),,,,2023-09-20 12:48:30,2023-09-20 12:49:02,32.182s,PASSED
,,,,,,,
Test Cases/tc2_Mobile/m3_changeProfile/mp3_Mengedit profile full name dengan valid,,,,2023-09-20 12:49:02,2023-09-20 12:50:52,1m - 49.830s,PASSED
auth.Authenticate.performLoginProfileMobile(),,,,2023-09-20 12:49:02,2023-09-20 12:49:21,18.369s,PASSED
"tap(findTestObject(""Object Repository/or2_Mobile/orm3_updateProfile/Home/Button - Profile""), 0)",,,,2023-09-20 12:49:21,2023-09-20 12:49:51,30.225s,PASSED
"tap(findTestObject(""Object Repository/or2_Mobile/orm3_updateProfile/Home/Button - Settings""), 0)",,,,2023-09-20 12:49:51,2023-09-20 12:49:53,1.954s,PASSED
"tap(findTestObject(""Object Repository/or2_Mobile/orm3_updateProfile/Home/Button - Edit Profile""), 0)",,,,2023-09-20 12:49:53,2023-09-20 12:49:53,0.401s,PASSED
"tap(findTestObject(""Object Repository/or2_Mobile/orm3_updateProfile/EditProfile/FullName/Input - Full Name""), 0)",,,,2023-09-20 12:49:53,2023-09-20 12:49:56,2.769s,PASSED
"sendKeys(findTestObject(""Object Repository/or2_Mobile/orm3_updateProfile/EditProfile/FullName/Input - Full Name""), ""Reza Wahyu Adinata"", STOP_ON_FAILURE)",,,,2023-09-20 12:49:56,2023-09-20 12:49:57,1.224s,PASSED
pressBack(),,,,2023-09-20 12:49:57,2023-09-20 12:49:58,0.912s,PASSED
"delay(5, STOP_ON_FAILURE)",,,,2023-09-20 12:49:58,2023-09-20 12:50:03,5.009s,PASSED
"tap(findTestObject(""Object Repository/or2_Mobile/orm3_updateProfile/EditProfile/Button - Save Changes""), 0)",,,,2023-09-20 12:50:03,2023-09-20 12:50:03,0.403s,PASSED
pressBack(),,,,2023-09-20 12:50:03,2023-09-20 12:50:04,0.814s,PASSED
"delay(5, STOP_ON_FAILURE)",,,,2023-09-20 12:50:04,2023-09-20 12:50:09,5.010s,PASSED
"tap(findTestObject(""Object Repository/or2_Mobile/orm3_updateProfile/EditProfile/Button - Save Changes""), 0)",,,,2023-09-20 12:50:09,2023-09-20 12:50:10,0.405s,PASSED
"delay(5, STOP_ON_FAILURE)",,,,2023-09-20 12:50:10,2023-09-20 12:50:15,5.015s,PASSED
"tap(findTestObject(""or2_Mobile/orm3_updateProfile/EditProfile/Button - Confimation Okay (save changes)""), 0)",,,,2023-09-20 12:50:15,2023-09-20 12:50:15,0.281s,PASSED
"delay(5, STOP_ON_FAILURE)",,,,2023-09-20 12:50:15,2023-09-20 12:50:20,5.005s,PASSED
auth.Authenticate.performLogOutProfileMobile(),,,,2023-09-20 12:50:20,2023-09-20 12:50:52,31.625s,PASSED
,,,,,,,
Test Cases/tc2_Mobile/m3_changeProfile/mp4_Mengedit profile full name dengan symbol,,,,2023-09-20 12:50:52,2023-09-20 12:52:38,1m - 46.318s,PASSED
auth.Authenticate.performLoginProfileMobile(),,,,2023-09-20 12:50:52,2023-09-20 12:51:13,21.100s,PASSED
"tap(findTestObject(""Object Repository/or2_Mobile/orm3_updateProfile/Home/Button - Profile""), 0)",,,,2023-09-20 12:51:13,2023-09-20 12:51:43,30.181s,PASSED
"tap(findTestObject(""Object Repository/or2_Mobile/orm3_updateProfile/Home/Button - Settings""), 0)",,,,2023-09-20 12:51:43,2023-09-20 12:51:44,1.013s,PASSED
"tap(findTestObject(""Object Repository/or2_Mobile/orm3_updateProfile/Home/Button - Edit Profile""), 0)",,,,2023-09-20 12:51:44,2023-09-20 12:51:46,1.284s,PASSED
"tap(findTestObject(""Object Repository/or2_Mobile/orm3_updateProfile/EditProfile/FullName/Input - Full Name""), 0)",,,,2023-09-20 12:51:46,2023-09-20 12:51:48,2.754s,PASSED
"sendKeys(findTestObject(""Object Repository/or2_Mobile/orm3_updateProfile/EditProfile/FullName/Input - Full Name""), ""Reza_Wahyu_Adinata"", STOP_ON_FAILURE)",,,,2023-09-20 12:51:48,2023-09-20 12:51:50,1.173s,PASSED
pressBack(),,,,2023-09-20 12:51:50,2023-09-20 12:51:50,0.889s,PASSED
"delay(5, STOP_ON_FAILURE)",,,,2023-09-20 12:51:50,2023-09-20 12:51:55,5.010s,PASSED
pressBack(),,,,2023-09-20 12:51:55,2023-09-20 12:51:56,0.176s,PASSED
"delay(5, STOP_ON_FAILURE)",,,,2023-09-20 12:51:56,2023-09-20 12:52:01,5.013s,PASSED
pressBack(),,,,2023-09-20 12:52:01,2023-09-20 12:52:01,0.157s,PASSED
"delay(5, STOP_ON_FAILURE)",,,,2023-09-20 12:52:01,2023-09-20 12:52:06,5.008s,PASSED
auth.Authenticate.performLogOutProfileMobile(),,,,2023-09-20 12:52:06,2023-09-20 12:52:38,32.129s,PASSED
,,,,,,,
Test Cases/tc2_Mobile/m3_changeProfile/mp5_Mengedit profile full name dengan angka,,,,2023-09-20 12:52:38,2023-09-20 12:54:38,1m - 59.811s,PASSED
auth.Authenticate.performLoginProfileMobile(),,,,2023-09-20 12:52:38,2023-09-20 12:52:57,19.153s,PASSED
"tap(findTestObject(""Object Repository/or2_Mobile/orm3_updateProfile/Home/Button - Profile""), 0)",,,,2023-09-20 12:52:57,2023-09-20 12:53:28,30.202s,PASSED
"tap(findTestObject(""Object Repository/or2_Mobile/orm3_updateProfile/Home/Button - Settings""), 0)",,,,2023-09-20 12:53:28,2023-09-20 12:53:30,1.837s,PASSED
"tap(findTestObject(""Object Repository/or2_Mobile/orm3_updateProfile/Home/Button - Edit Profile""), 0)",,,,2023-09-20 12:53:30,2023-09-20 12:53:30,0.416s,PASSED
"tap(findTestObject(""Object Repository/or2_Mobile/orm3_updateProfile/EditProfile/FullName/Input - Full Name""), 0)",,,,2023-09-20 12:53:30,2023-09-20 12:53:33,2.920s,PASSED
"sendKeys(findTestObject(""Object Repository/or2_Mobile/orm3_updateProfile/EditProfile/FullName/Input - Full Name""), ""1234567890"", STOP_ON_FAILURE)",,,,2023-09-20 12:53:33,2023-09-20 12:53:34,1.271s,PASSED
pressBack(),,,,2023-09-20 12:53:34,2023-09-20 12:53:35,0.880s,PASSED
"delay(5, STOP_ON_FAILURE)",,,,2023-09-20 12:53:35,2023-09-20 12:53:40,5.009s,PASSED
pressBack(),,,,2023-09-20 12:53:40,2023-09-20 12:53:40,0.160s,PASSED
"delay(5, STOP_ON_FAILURE)",,,,2023-09-20 12:53:40,2023-09-20 12:53:45,5.002s,PASSED
pressBack(),,,,2023-09-20 12:53:45,2023-09-20 12:53:45,0.174s,PASSED
"delay(20, STOP_ON_FAILURE)",,,,2023-09-20 12:53:45,2023-09-20 12:54:05,20.015s,PASSED
auth.Authenticate.performLogOutProfileMobile(),,,,2023-09-20 12:54:05,2023-09-20 12:54:38,32.324s,PASSED
,,,,,,,
Test Cases/tc2_Mobile/m3_changeProfile/mp6_Mengedit profile full name dengan kosong,,,,2023-09-20 12:54:38,2023-09-20 12:56:23,1m - 45.083s,PASSED
auth.Authenticate.performLoginProfileMobile(),,,,2023-09-20 12:54:38,2023-09-20 12:54:58,19.905s,PASSED
"tap(findTestObject(""Object Repository/or2_Mobile/orm3_updateProfile/Home/Button - Profile""), 0)",,,,2023-09-20 12:54:58,2023-09-20 12:55:28,30.229s,PASSED
"tap(findTestObject(""Object Repository/or2_Mobile/orm3_updateProfile/Home/Button - Settings""), 0)",,,,2023-09-20 12:55:28,2023-09-20 12:55:30,2.099s,PASSED
"tap(findTestObject(""Object Repository/or2_Mobile/orm3_updateProfile/Home/Button - Edit Profile""), 0)",,,,2023-09-20 12:55:30,2023-09-20 12:55:31,0.339s,PASSED
"tap(findTestObject(""Object Repository/or2_Mobile/orm3_updateProfile/EditProfile/FullName/Input - Full Name""), 0)",,,,2023-09-20 12:55:31,2023-09-20 12:55:33,2.669s,PASSED
"sendKeys(findTestObject(""Object Repository/or2_Mobile/orm3_updateProfile/EditProfile/FullName/Input - Full Name""), "" "", STOP_ON_FAILURE)",,,,2023-09-20 12:55:33,2023-09-20 12:55:34,0.457s,PASSED
pressBack(),,,,2023-09-20 12:55:34,2023-09-20 12:55:35,1.225s,PASSED
"delay(5, STOP_ON_FAILURE)",,,,2023-09-20 12:55:35,2023-09-20 12:55:40,5.008s,PASSED
pressBack(),,,,2023-09-20 12:55:40,2023-09-20 12:55:40,0.190s,PASSED
"delay(5, STOP_ON_FAILURE)",,,,2023-09-20 12:55:40,2023-09-20 12:55:45,5.009s,PASSED
pressBack(),,,,2023-09-20 12:55:45,2023-09-20 12:55:46,0.190s,PASSED
"delay(5, STOP_ON_FAILURE)",,,,2023-09-20 12:55:46,2023-09-20 12:55:51,5.009s,PASSED
auth.Authenticate.performLogOutProfileMobile(),,,,2023-09-20 12:55:51,2023-09-20 12:56:23,32.278s,PASSED
,,,,,,,
Test Cases/tc2_Mobile/m3_changeProfile/mp7_Mengedit nomor telephone dengan data yang valid,,,,2023-09-20 12:56:23,2023-09-20 12:58:05,1m - 42.677s,PASSED
auth.Authenticate.performLoginProfileMobile(),,,,2023-09-20 12:56:23,2023-09-20 12:56:43,19.984s,PASSED
"tap(findTestObject(""Object Repository/or2_Mobile/orm3_updateProfile/Home/Button - Profile""), 0)",,,,2023-09-20 12:56:43,2023-09-20 12:57:14,30.237s,PASSED
"tap(findTestObject(""Object Repository/or2_Mobile/orm3_updateProfile/Home/Button - Settings""), 0)",,,,2023-09-20 12:57:14,2023-09-20 12:57:14,0.868s,PASSED
"tap(findTestObject(""Object Repository/or2_Mobile/orm3_updateProfile/Home/Button - Edit Profile""), 0)",,,,2023-09-20 12:57:14,2023-09-20 12:57:16,1.412s,PASSED
"tap(findTestObject(""Object Repository/or2_Mobile/orm3_updateProfile/EditProfile/Phone/Input - Phone""), 0)",,,,2023-09-20 12:57:16,2023-09-20 12:57:19,2.736s,PASSED
"sendKeys(findTestObject(""Object Repository/or2_Mobile/orm3_updateProfile/EditProfile/Phone/Input - Phone""), ""081385484593"", STOP_ON_FAILURE)",,,,2023-09-20 12:57:19,2023-09-20 12:57:20,1.288s,PASSED
pressBack(),,,,2023-09-20 12:57:20,2023-09-20 12:57:21,0.925s,PASSED
"tap(findTestObject(""Object Repository/or2_Mobile/orm3_updateProfile/EditProfile/Button - Save Changes""), 0)",,,,2023-09-20 12:57:21,2023-09-20 12:57:22,1.003s,PASSED
pressBack(),,,,2023-09-20 12:57:22,2023-09-20 12:57:23,0.778s,PASSED
"tap(findTestObject(""Object Repository/or2_Mobile/orm3_updateProfile/EditProfile/Button - Save Changes""), 0)",,,,2023-09-20 12:57:23,2023-09-20 12:57:24,1.057s,PASSED
"delay(5, STOP_ON_FAILURE)",,,,2023-09-20 12:57:24,2023-09-20 12:57:29,5.016s,PASSED
"tap(findTestObject(""or2_Mobile/orm3_updateProfile/EditProfile/Button - Confimation Okay (save changes)""), 0)",,,,2023-09-20 12:57:29,2023-09-20 12:57:29,0.248s,PASSED
"delay(5, STOP_ON_FAILURE)",,,,2023-09-20 12:57:29,2023-09-20 12:57:34,5.012s,PASSED
auth.Authenticate.performLogOutProfileMobile(),,,,2023-09-20 12:57:34,2023-09-20 12:58:05,31.624s,PASSED
,,,,,,,
Test Cases/tc2_Mobile/m3_changeProfile/mp8_Mengedit nomor telephone dengan huruf,,,,2023-09-20 12:58:05,2023-09-20 13:00:06,2m - 0.550s,PASSED
auth.Authenticate.performLoginProfileMobile(),,,,2023-09-20 12:58:06,2023-09-20 12:58:26,20.394s,PASSED
"tap(findTestObject(""Object Repository/or2_Mobile/orm3_updateProfile/Home/Button - Profile""), 0)",,,,2023-09-20 12:58:26,2023-09-20 12:58:57,30.196s,PASSED
"tap(findTestObject(""Object Repository/or2_Mobile/orm3_updateProfile/Home/Button - Settings""), 0)",,,,2023-09-20 12:58:57,2023-09-20 12:58:58,1.065s,PASSED
"tap(findTestObject(""Object Repository/or2_Mobile/orm3_updateProfile/Home/Button - Edit Profile""), 0)",,,,2023-09-20 12:58:58,2023-09-20 12:58:59,1.226s,PASSED
"tap(findTestObject(""Object Repository/or2_Mobile/orm3_updateProfile/EditProfile/Phone/Input - Phone""), 0)",,,,2023-09-20 12:58:59,2023-09-20 12:59:02,2.918s,PASSED
"sendKeys(findTestObject(""Object Repository/or2_Mobile/orm3_updateProfile/EditProfile/Phone/Input - Phone""), ""nomor saya"", STOP_ON_FAILURE)",,,,2023-09-20 12:59:02,2023-09-20 12:59:02,0.333s,PASSED
pressBack(),,,,2023-09-20 12:59:02,2023-09-20 12:59:03,1.381s,PASSED
"delay(5, STOP_ON_FAILURE)",,,,2023-09-20 12:59:03,2023-09-20 12:59:08,5.009s,PASSED
pressBack(),,,,2023-09-20 12:59:08,2023-09-20 12:59:09,0.158s,PASSED
"delay(5, STOP_ON_FAILURE)",,,,2023-09-20 12:59:09,2023-09-20 12:59:14,5.013s,PASSED
pressBack(),,,,2023-09-20 12:59:14,2023-09-20 12:59:14,0.145s,PASSED
"delay(20, STOP_ON_FAILURE)",,,,2023-09-20 12:59:14,2023-09-20 12:59:34,20.006s,PASSED
auth.Authenticate.performLogOutProfileMobile(),,,,2023-09-20 12:59:34,2023-09-20 13:00:06,32.253s,PASSED
,,,,,,,
Test Cases/tc2_Mobile/m3_changeProfile/mp9_Mengedit nomor telephone dengan kosong,,,,2023-09-20 13:00:06,2023-09-20 13:02:06,1m - 59.825s,PASSED
auth.Authenticate.performLoginProfileMobile(),,,,2023-09-20 13:00:07,2023-09-20 13:00:26,19.791s,PASSED
"tap(findTestObject(""Object Repository/or2_Mobile/orm3_updateProfile/Home/Button - Profile""), 0)",,,,2023-09-20 13:00:26,2023-09-20 13:00:57,30.385s,PASSED
"tap(findTestObject(""Object Repository/or2_Mobile/orm3_updateProfile/Home/Button - Settings""), 0)",,,,2023-09-20 13:00:57,2023-09-20 13:00:58,1.706s,PASSED
"tap(findTestObject(""Object Repository/or2_Mobile/orm3_updateProfile/Home/Button - Edit Profile""), 0)",,,,2023-09-20 13:00:58,2023-09-20 13:00:59,0.523s,PASSED
"tap(findTestObject(""Object Repository/or2_Mobile/orm3_updateProfile/EditProfile/Phone/Input - Phone""), 0)",,,,2023-09-20 13:00:59,2023-09-20 13:01:00,1.418s,PASSED
"sendKeys(findTestObject(""Object Repository/or2_Mobile/orm3_updateProfile/EditProfile/Phone/Input - Phone""), "" "", STOP_ON_FAILURE)",,,,2023-09-20 13:01:00,2023-09-20 13:01:02,1.577s,PASSED
pressBack(),,,,2023-09-20 13:01:02,2023-09-20 13:01:03,1.281s,PASSED
"delay(5, STOP_ON_FAILURE)",,,,2023-09-20 13:01:03,2023-09-20 13:01:08,5.017s,PASSED
pressBack(),,,,2023-09-20 13:01:08,2023-09-20 13:01:08,0.159s,PASSED
"delay(5, STOP_ON_FAILURE)",,,,2023-09-20 13:01:08,2023-09-20 13:01:13,5.024s,PASSED
pressBack(),,,,2023-09-20 13:01:13,2023-09-20 13:01:14,0.203s,PASSED
"delay(20, STOP_ON_FAILURE)",,,,2023-09-20 13:01:14,2023-09-20 13:01:34,20.002s,PASSED
auth.Authenticate.performLogOutProfileMobile(),,,,2023-09-20 13:01:34,2023-09-20 13:02:06,32.244s,PASSED
