[35m[Appium][39m Welcome to Appium v1.22.3
[35m[Appium][39m Non-default server args:
[35m[Appium][39m   port: 53154
[35m[Appium][39m   loglevel: info
[35m[Appium][39m   tmpDir: C:\Users\E-COMM~1\AppData\Local\Temp\\Katalon\Appium\Temp1695013659340
[35m[Appium][39m   chromedriverPort: 53155
[35m[Appium][39m Deprecated server args:
[35m[Appium][39m   [31m--chromedriver-port[39m => --default-capabilities
[35m[Appium][39m Default capabilities, which will be added to each request unless overridden by desired capabilities:
[35m[Appium][39m   chromedriverPort: 53155
[35m[Appium][39m Appium REST http interface listener started on 0.0.0.0:53154
[35m[HTTP][39m [37m-->[39m [37mGET[39m [37m/wd/hub/status[39m
[35m[HTTP][39m [90m{}[39m
[35m[HTTP][39m [37m<-- GET /wd/hub/status [39m[32m200[39m [90m11 ms - 68[39m
[35m[HTTP][39m [90m[39m
[35m[HTTP][39m [37m-->[39m [37mPOST[39m [37m/wd/hub/session[39m
[35m[HTTP][39m [90m{"desiredCapabilities":{"app":"C:\\Users\\E-commerce\\git\\coding-id-fpt3\\OurFile\\DemoAppV2.apk","noReset":false,"newCommandTimeout":1800,"platformVersion":"6.0.1","autoGrantPermissions":true,"platformName":"Android","udid":"42002b1ad675b433","deviceName":"samsung SM-G532G (Android 6.0.1)","fullReset":true,"platform":"ANDROID","systemPort":53153},"capabilities":{"firstMatch":[{"appium:app":"C:\\Users\\E-commerce\\git\\coding-id-fpt3\\OurFile\\DemoAppV2.apk","appium:autoGrantPermissions":true,"appium:deviceName":"samsung SM-G532G (Android 6.0.1)","appium:fullReset":true,"appium:newCommandTimeout":1800,"appium:noReset":false,"platform":"ANDROID","platformName":"android","appium:platformVersion":"6.0.1","appium:systemPort":53153,"appium:udid":"42002b1ad675b433"}]}}[39m
[35m[BaseDriver][39m The following capabilities are not standard capabilities and should have an extension prefix:
[35m[BaseDriver][39m   platform
[35m[BaseDriver][39m   chromedriverPort
[35m[Appium][39m 
[35m[Appium][39m ======================================================================
[35m[Appium][39m   DEPRECATION WARNING:
[35m[Appium][39m 
[35m[Appium][39m   The 'automationName' capability was not provided in the desired 
[35m[Appium][39m   capabilities for this Android session
[35m[Appium][39m 
[35m[Appium][39m   Setting 'automationName=UiAutomator2' by default and using the 
[35m[Appium][39m   UiAutomator2 Driver
[35m[Appium][39m 
[35m[Appium][39m   The next major version of Appium (2.x) will **require** the 
[35m[Appium][39m   'automationName' capability to be set for all sessions on all 
[35m[Appium][39m   platforms
[35m[Appium][39m 
[35m[Appium][39m   In previous versions (Appium <= 1.13.x), the default was 
[35m[Appium][39m   'automationName=UiAutomator1'
[35m[Appium][39m 
[35m[Appium][39m   If you wish to use that automation instead of UiAutomator2, please 
[35m[Appium][39m   add 'automationName=UiAutomator1' to your desired capabilities
[35m[Appium][39m 
[35m[Appium][39m   For more information about drivers, please visit 
[35m[Appium][39m   http://appium.io/docs/en/about-appium/intro/ and explore the 
[35m[Appium][39m   'Drivers' menu
[35m[Appium][39m 
[35m[Appium][39m ======================================================================
[35m[Appium][39m 
[35m[Appium][39m Appium v1.22.3 creating new AndroidUiautomator2Driver (v1.70.1) session
[35m[BaseDriver][39m The following capabilities were provided, but are not recognized by Appium:
[35m[BaseDriver][39m   platform
[35m[BaseDriver][39m Session created with session id: d37063ed-73a7-41e7-a026-f90e033dc1a5
[35m[BaseDriver][39m Using local app 'C:\Users\E-commerce\git\coding-id-fpt3\OurFile\DemoAppV2.apk'
[35m[ADB][39m Found 1 'build-tools' folders under 'C:\Users\E-commerce\.katalon\tools\android_sdk' (newest first):
[35m[ADB][39m     C:/Users/E-commerce/.katalon/tools/android_sdk/build-tools/29.0.3
[35m[ADB][39m Using 'adb.exe' from 'C:\Users\E-commerce\.katalon\tools\android_sdk\platform-tools\adb.exe'
[35m[AndroidDriver][39m Retrieving device list
[35m[AndroidDriver][39m Using device: 42002b1ad675b433
[35m[ADB][39m Using 'adb.exe' from 'C:\Users\E-commerce\.katalon\tools\android_sdk\platform-tools\adb.exe'
[35m[ADB][39m Package name: 'com.codingid.codingidhive.betastaging'
[35m[ADB][39m Main activity name: 'com.codingid.codingidhive.MainActivity'
[35m[ADB][39m Using 'apksigner.jar' from 'C:\Users\E-commerce\.katalon\tools\android_sdk\build-tools\29.0.3\lib\apksigner.jar'
[35m[ADB][39m 'C:\Users\E-commerce\AppData\Roaming\nvm\v18.17.1\node_modules\appium\node_modules\appium-uiautomator2-server\apks\appium-uiautomator2-server-v4.27.0.apk' is signed with the default certificate
[35m[ADB][39m 'C:\Users\E-commerce\AppData\Roaming\nvm\v18.17.1\node_modules\appium\node_modules\appium-uiautomator2-server\apks\appium-uiautomator2-server-debug-androidTest.apk' is signed with the default certificate
[35m[UiAutomator2][39m Server packages are not going to be (re)installed
[35m[ADB][39m Adding packages ["io.appium.settings","io.appium.uiautomator2.server","io.appium.uiautomator2.server.test"] to Doze whitelist
[35m[ADB][39m 'C:\Users\E-commerce\git\coding-id-fpt3\OurFile\DemoAppV2.apk' is signed with a non-default certificate
[35m[ADB][39m com.codingid.codingidhive.betastaging was not uninstalled, because it was not present on the device
[35m[ADB][39m The application at 'C:\Users\E-commerce\git\coding-id-fpt3\OurFile\DemoAppV2.apk' is already cached to '/data/local/tmp/appium_cache/b9bb02b8ff7310bbb0045cdd1bd85aed3ad79e35.apk'
[35m[ADB][39m The installation of 'DemoAppV2.apk' took 28676ms
[35m[UiAutomator2][39m Starting UIAutomator2 server 4.27.0
[35m[UiAutomator2][39m Using UIAutomator2 server from 'C:\Users\E-commerce\AppData\Roaming\nvm\v18.17.1\node_modules\appium\node_modules\appium-uiautomator2-server\apks\appium-uiautomator2-server-v4.27.0.apk' and test from 'C:\Users\E-commerce\AppData\Roaming\nvm\v18.17.1\node_modules\appium\node_modules\appium-uiautomator2-server\apks\appium-uiautomator2-server-debug-androidTest.apk'
[35m[UiAutomator2][39m Waiting up to 30000ms for UiAutomator2 to be online...
[35m[WD Proxy][39m socket hang up
[35m[WD Proxy][39m socket hang up
[35m[WD Proxy][39m socket hang up
[35m[WD Proxy][39m socket hang up
[35m[WD Proxy][39m socket hang up
[35m[WD Proxy][39m Determined the downstream protocol as 'W3C'
[35m[AndroidDriver][39m Screen already unlocked, doing nothing
[35m[UiAutomator2][39m Starting 'com.codingid.codingidhive.betastaging/com.codingid.codingidhive.MainActivity and waiting for 'com.codingid.codingidhive.betastaging/com.codingid.codingidhive.MainActivity'
[35m[Appium][39m New AndroidUiautomator2Driver session created successfully, session d37063ed-73a7-41e7-a026-f90e033dc1a5 added to master session list
[35m[HTTP][39m [37m<-- POST /wd/hub/session [39m[32m200[39m [90m53952 ms - 1264[39m
[35m[HTTP][39m [90m[39m
[35m[HTTP][39m [37m-->[39m [37mGET[39m [37m/wd/hub/session/d37063ed-73a7-41e7-a026-f90e033dc1a5[39m
[35m[HTTP][39m [90m{}[39m
[35m[HTTP][39m [37m<-- GET /wd/hub/session/d37063ed-73a7-41e7-a026-f90e033dc1a5 [39m[32m200[39m [90m10 ms - 1218[39m
[35m[HTTP][39m [90m[39m
[35m[HTTP][39m [37m-->[39m [37mGET[39m [37m/wd/hub/session/d37063ed-73a7-41e7-a026-f90e033dc1a5[39m
[35m[HTTP][39m [90m{}[39m
[35m[HTTP][39m [37m<-- GET /wd/hub/session/d37063ed-73a7-41e7-a026-f90e033dc1a5 [39m[32m200[39m [90m10 ms - 1218[39m
[35m[HTTP][39m [90m[39m
[35m[HTTP][39m [37m-->[39m [37mGET[39m [37m/wd/hub/status[39m
[35m[HTTP][39m [90m{}[39m
[35m[HTTP][39m [37m<-- GET /wd/hub/status [39m[32m200[39m [90m1 ms - 68[39m
[35m[HTTP][39m [90m[39m
[35m[HTTP][39m [37m-->[39m [37mPOST[39m [37m/wd/hub/session/d37063ed-73a7-41e7-a026-f90e033dc1a5/timeouts[39m
[35m[HTTP][39m [90m{"implicit":30000}[39m
[35m[HTTP][39m [37m<-- POST /wd/hub/session/d37063ed-73a7-41e7-a026-f90e033dc1a5/timeouts [39m[32m200[39m [90m3 ms - 14[39m
[35m[HTTP][39m [90m[39m
[35m[HTTP][39m [37m-->[39m [37mGET[39m [37m/wd/hub/session/d37063ed-73a7-41e7-a026-f90e033dc1a5/screenshot[39m
[35m[HTTP][39m [90m{}[39m
[35m[HTTP][39m [37m<-- GET /wd/hub/session/d37063ed-73a7-41e7-a026-f90e033dc1a5/screenshot [39m[32m200[39m [90m355 ms - 13980[39m
[35m[HTTP][39m [90m[39m
[35m[HTTP][39m [37m-->[39m [37mGET[39m [37m/wd/hub/session/d37063ed-73a7-41e7-a026-f90e033dc1a5/window/rect[39m
[35m[HTTP][39m [90m{}[39m
[35m[HTTP][39m [37m<-- GET /wd/hub/session/d37063ed-73a7-41e7-a026-f90e033dc1a5/window/rect [39m[32m200[39m [90m17 ms - 48[39m
[35m[HTTP][39m [90m[39m
[35m[HTTP][39m [37m-->[39m [37mGET[39m [37m/wd/hub/session/d37063ed-73a7-41e7-a026-f90e033dc1a5/appium/device/system_bars[39m
[35m[HTTP][39m [90m{}[39m
[35m[HTTP][39m [37m<-- GET /wd/hub/session/d37063ed-73a7-41e7-a026-f90e033dc1a5/appium/device/system_bars [39m[31m500[39m [90m166 ms - 677[39m
[35m[HTTP][39m [90m[39m
[35m[HTTP][39m [37m-->[39m [37mPOST[39m [37m/wd/hub/session/d37063ed-73a7-41e7-a026-f90e033dc1a5/execute/sync[39m
[35m[HTTP][39m [90m{"script":"mobile:viewportRect","args":[]}[39m
[35m[AndroidDriver][39m Executing native command 'mobile:viewportRect'
[35m[HTTP][39m [37m<-- POST /wd/hub/session/d37063ed-73a7-41e7-a026-f90e033dc1a5/execute/sync [39m[32m200[39m [90m20 ms - 54[39m
[35m[HTTP][39m [90m[39m
[35m[HTTP][39m [37m-->[39m [37mPOST[39m [37m/wd/hub/session/d37063ed-73a7-41e7-a026-f90e033dc1a5/timeouts[39m
[35m[HTTP][39m [90m{"implicit":50}[39m
[35m[HTTP][39m [37m<-- POST /wd/hub/session/d37063ed-73a7-41e7-a026-f90e033dc1a5/timeouts [39m[32m200[39m [90m2 ms - 14[39m
[35m[HTTP][39m [90m[39m
[35m[HTTP][39m [37m-->[39m [37mGET[39m [37m/wd/hub/session/d37063ed-73a7-41e7-a026-f90e033dc1a5/window/rect[39m
[35m[HTTP][39m [90m{}[39m
[35m[HTTP][39m [37m<-- GET /wd/hub/session/d37063ed-73a7-41e7-a026-f90e033dc1a5/window/rect [39m[32m200[39m [90m13 ms - 48[39m
[35m[HTTP][39m [90m[39m
[35m[HTTP][39m [37m-->[39m [37mPOST[39m [37m/wd/hub/session/d37063ed-73a7-41e7-a026-f90e033dc1a5/elements[39m
[35m[HTTP][39m [90m{"using":"xpath","value":"//*[@class = 'android.widget.TextView' and (@text = 'Login Here' or . = 'Login Here')]"}[39m
[35m[HTTP][39m [37m<-- POST /wd/hub/session/d37063ed-73a7-41e7-a026-f90e033dc1a5/elements [39m[32m200[39m [90m366 ms - 12[39m
[35m[HTTP][39m [90m[39m
[35m[HTTP][39m [37m-->[39m [37mPOST[39m [37m/wd/hub/session/d37063ed-73a7-41e7-a026-f90e033dc1a5/elements[39m
[35m[HTTP][39m [90m{"using":"xpath","value":"//*[@class = 'android.widget.TextView' and (@text = 'Login Here' or . = 'Login Here')]"}[39m
[35m[HTTP][39m [37m<-- POST /wd/hub/session/d37063ed-73a7-41e7-a026-f90e033dc1a5/elements [39m[32m200[39m [90m99 ms - 12[39m
[35m[HTTP][39m [90m[39m
[35m[HTTP][39m [37m-->[39m [37mPOST[39m [37m/wd/hub/session/d37063ed-73a7-41e7-a026-f90e033dc1a5/elements[39m
[35m[HTTP][39m [90m{"using":"xpath","value":"//*[@class = 'android.widget.TextView' and (@text = 'Login Here' or . = 'Login Here')]"}[39m
[35m[HTTP][39m [37m<-- POST /wd/hub/session/d37063ed-73a7-41e7-a026-f90e033dc1a5/elements [39m[32m200[39m [90m85 ms - 12[39m
[35m[HTTP][39m [90m[39m
[35m[HTTP][39m [37m-->[39m [37mPOST[39m [37m/wd/hub/session/d37063ed-73a7-41e7-a026-f90e033dc1a5/elements[39m
[35m[HTTP][39m [90m{"using":"xpath","value":"//*[@class = 'android.widget.TextView' and (@text = 'Login Here' or . = 'Login Here')]"}[39m
[35m[HTTP][39m [37m<-- POST /wd/hub/session/d37063ed-73a7-41e7-a026-f90e033dc1a5/elements [39m[32m200[39m [90m66 ms - 12[39m
[35m[HTTP][39m [90m[39m
[35m[HTTP][39m [37m-->[39m [37mPOST[39m [37m/wd/hub/session/d37063ed-73a7-41e7-a026-f90e033dc1a5/elements[39m
[35m[HTTP][39m [90m{"using":"xpath","value":"//*[@class = 'android.widget.TextView' and (@text = 'Login Here' or . = 'Login Here')]"}[39m
[35m[HTTP][39m [37m<-- POST /wd/hub/session/d37063ed-73a7-41e7-a026-f90e033dc1a5/elements [39m[32m200[39m [90m1120 ms - 12[39m
[35m[HTTP][39m [90m[39m
[35m[HTTP][39m [37m-->[39m [37mPOST[39m [37m/wd/hub/session/d37063ed-73a7-41e7-a026-f90e033dc1a5/elements[39m
[35m[HTTP][39m [90m{"using":"xpath","value":"//*[@class = 'android.widget.TextView' and (@text = 'Login Here' or . = 'Login Here')]"}[39m
[35m[HTTP][39m [37m<-- POST /wd/hub/session/d37063ed-73a7-41e7-a026-f90e033dc1a5/elements [39m[32m200[39m [90m64 ms - 12[39m
[35m[HTTP][39m [90m[39m
[35m[HTTP][39m [37m-->[39m [37mPOST[39m [37m/wd/hub/session/d37063ed-73a7-41e7-a026-f90e033dc1a5/elements[39m
[35m[HTTP][39m [90m{"using":"xpath","value":"//*[@class = 'android.widget.TextView' and (@text = 'Login Here' or . = 'Login Here')]"}[39m
[35m[HTTP][39m [37m<-- POST /wd/hub/session/d37063ed-73a7-41e7-a026-f90e033dc1a5/elements [39m[32m200[39m [90m69 ms - 12[39m
[35m[HTTP][39m [90m[39m
[35m[HTTP][39m [37m-->[39m [37mPOST[39m [37m/wd/hub/session/d37063ed-73a7-41e7-a026-f90e033dc1a5/elements[39m
[35m[HTTP][39m [90m{"using":"xpath","value":"//*[@class = 'android.widget.TextView' and (@text = 'Login Here' or . = 'Login Here')]"}[39m
[35m[HTTP][39m [37m<-- POST /wd/hub/session/d37063ed-73a7-41e7-a026-f90e033dc1a5/elements [39m[32m200[39m [90m107 ms - 12[39m
[35m[HTTP][39m [90m[39m
[35m[HTTP][39m [37m-->[39m [37mPOST[39m [37m/wd/hub/session/d37063ed-73a7-41e7-a026-f90e033dc1a5/elements[39m
[35m[HTTP][39m [90m{"using":"xpath","value":"//*[@class = 'android.widget.TextView' and (@text = 'Login Here' or . = 'Login Here')]"}[39m
[35m[HTTP][39m [37m<-- POST /wd/hub/session/d37063ed-73a7-41e7-a026-f90e033dc1a5/elements [39m[32m200[39m [90m73 ms - 12[39m
[35m[HTTP][39m [90m[39m
[35m[HTTP][39m [37m-->[39m [37mPOST[39m [37m/wd/hub/session/d37063ed-73a7-41e7-a026-f90e033dc1a5/elements[39m
[35m[HTTP][39m [90m{"using":"xpath","value":"//*[@class = 'android.widget.TextView' and (@text = 'Login Here' or . = 'Login Here')]"}[39m
[35m[HTTP][39m [37m<-- POST /wd/hub/session/d37063ed-73a7-41e7-a026-f90e033dc1a5/elements [39m[32m200[39m [90m76 ms - 12[39m
[35m[HTTP][39m [90m[39m
[35m[HTTP][39m [37m-->[39m [37mPOST[39m [37m/wd/hub/session/d37063ed-73a7-41e7-a026-f90e033dc1a5/elements[39m
[35m[HTTP][39m [90m{"using":"xpath","value":"//*[@class = 'android.widget.TextView' and (@text = 'Login Here' or . = 'Login Here')]"}[39m
[35m[HTTP][39m [37m<-- POST /wd/hub/session/d37063ed-73a7-41e7-a026-f90e033dc1a5/elements [39m[32m200[39m [90m63 ms - 12[39m
[35m[HTTP][39m [90m[39m
[35m[HTTP][39m [37m-->[39m [37mPOST[39m [37m/wd/hub/session/d37063ed-73a7-41e7-a026-f90e033dc1a5/elements[39m
[35m[HTTP][39m [90m{"using":"xpath","value":"//*[@class = 'android.widget.TextView' and (@text = 'Login Here' or . = 'Login Here')]"}[39m
[35m[HTTP][39m [37m<-- POST /wd/hub/session/d37063ed-73a7-41e7-a026-f90e033dc1a5/elements [39m[32m200[39m [90m57 ms - 12[39m
[35m[HTTP][39m [90m[39m
[35m[HTTP][39m [37m-->[39m [37mPOST[39m [37m/wd/hub/session/d37063ed-73a7-41e7-a026-f90e033dc1a5/elements[39m
[35m[HTTP][39m [90m{"using":"xpath","value":"//*[@class = 'android.widget.TextView' and (@text = 'Login Here' or . = 'Login Here')]"}[39m
[35m[HTTP][39m [37m<-- POST /wd/hub/session/d37063ed-73a7-41e7-a026-f90e033dc1a5/elements [39m[32m200[39m [90m67 ms - 12[39m
[35m[HTTP][39m [90m[39m
[35m[HTTP][39m [37m-->[39m [37mPOST[39m [37m/wd/hub/session/d37063ed-73a7-41e7-a026-f90e033dc1a5/elements[39m
[35m[HTTP][39m [90m{"using":"xpath","value":"//*[@class = 'android.widget.TextView' and (@text = 'Login Here' or . = 'Login Here')]"}[39m
[35m[HTTP][39m [37m<-- POST /wd/hub/session/d37063ed-73a7-41e7-a026-f90e033dc1a5/elements [39m[32m200[39m [90m103 ms - 12[39m
[35m[HTTP][39m [90m[39m
[35m[HTTP][39m [37m-->[39m [37mPOST[39m [37m/wd/hub/session/d37063ed-73a7-41e7-a026-f90e033dc1a5/elements[39m
[35m[HTTP][39m [90m{"using":"xpath","value":"//*[@class = 'android.widget.TextView' and (@text = 'Login Here' or . = 'Login Here')]"}[39m
[35m[HTTP][39m [37m<-- POST /wd/hub/session/d37063ed-73a7-41e7-a026-f90e033dc1a5/elements [39m[32m200[39m [90m129 ms - 12[39m
[35m[HTTP][39m [90m[39m
[35m[HTTP][39m [37m-->[39m [37mPOST[39m [37m/wd/hub/session/d37063ed-73a7-41e7-a026-f90e033dc1a5/elements[39m
[35m[HTTP][39m [90m{"using":"xpath","value":"//*[@class = 'android.widget.TextView' and (@text = 'Login Here' or . = 'Login Here')]"}[39m
[35m[HTTP][39m [37m<-- POST /wd/hub/session/d37063ed-73a7-41e7-a026-f90e033dc1a5/elements [39m[32m200[39m [90m73 ms - 12[39m
[35m[HTTP][39m [90m[39m
[35m[HTTP][39m [37m-->[39m [37mPOST[39m [37m/wd/hub/session/d37063ed-73a7-41e7-a026-f90e033dc1a5/elements[39m
[35m[HTTP][39m [90m{"using":"xpath","value":"//*[@class = 'android.widget.TextView' and (@text = 'Login Here' or . = 'Login Here')]"}[39m
[35m[HTTP][39m [37m<-- POST /wd/hub/session/d37063ed-73a7-41e7-a026-f90e033dc1a5/elements [39m[32m200[39m [90m78 ms - 12[39m
[35m[HTTP][39m [90m[39m
[35m[HTTP][39m [37m-->[39m [37mPOST[39m [37m/wd/hub/session/d37063ed-73a7-41e7-a026-f90e033dc1a5/elements[39m
[35m[HTTP][39m [90m{"using":"xpath","value":"//*[@class = 'android.widget.TextView' and (@text = 'Login Here' or . = 'Login Here')]"}[39m
[35m[HTTP][39m [37m<-- POST /wd/hub/session/d37063ed-73a7-41e7-a026-f90e033dc1a5/elements [39m[32m200[39m [90m5162 ms - 139[39m
[35m[HTTP][39m [90m[39m
[35m[HTTP][39m [37m-->[39m [37mGET[39m [37m/wd/hub/session/d37063ed-73a7-41e7-a026-f90e033dc1a5/element/00000000-0000-012a-7fff-ffff00000066/location[39m
[35m[HTTP][39m [90m{}[39m
[35m[W3C (d37063ed)][39m Driver proxy active, passing request on via HTTP proxy
[35m[WD Proxy][39m Replacing sessionId 73f5882f-b730-414a-a90d-63eae36d75f3 with d37063ed-73a7-41e7-a026-f90e033dc1a5
[35m[HTTP][39m [37m<-- GET /wd/hub/session/d37063ed-73a7-41e7-a026-f90e033dc1a5/element/00000000-0000-012a-7fff-ffff00000066/location [39m[32m200[39m [90m18 ms - 78[39m
[35m[HTTP][39m [90m[39m
[35m[HTTP][39m [37m-->[39m [37mPOST[39m [37m/wd/hub/session/d37063ed-73a7-41e7-a026-f90e033dc1a5/timeouts[39m
[35m[HTTP][39m [90m{"implicit":30000}[39m
[35m[HTTP][39m [37m<-- POST /wd/hub/session/d37063ed-73a7-41e7-a026-f90e033dc1a5/timeouts [39m[32m200[39m [90m1 ms - 14[39m
[35m[HTTP][39m [90m[39m
[35m[HTTP][39m [37m-->[39m [37mPOST[39m [37m/wd/hub/session/d37063ed-73a7-41e7-a026-f90e033dc1a5/element/00000000-0000-012a-7fff-ffff00000066/click[39m
[35m[HTTP][39m [90m{"id":"00000000-0000-012a-7fff-ffff00000066"}[39m
[35m[HTTP][39m [37m<-- POST /wd/hub/session/d37063ed-73a7-41e7-a026-f90e033dc1a5/element/00000000-0000-012a-7fff-ffff00000066/click [39m[32m200[39m [90m51 ms - 14[39m
[35m[HTTP][39m [90m[39m
[35m[HTTP][39m [37m-->[39m [37mPOST[39m [37m/wd/hub/session/d37063ed-73a7-41e7-a026-f90e033dc1a5/timeouts[39m
[35m[HTTP][39m [90m{"implicit":50}[39m
[35m[HTTP][39m [37m<-- POST /wd/hub/session/d37063ed-73a7-41e7-a026-f90e033dc1a5/timeouts [39m[32m200[39m [90m1 ms - 14[39m
[35m[HTTP][39m [90m[39m
[35m[HTTP][39m [37m-->[39m [37mGET[39m [37m/wd/hub/session/d37063ed-73a7-41e7-a026-f90e033dc1a5/window/rect[39m
[35m[HTTP][39m [90m{}[39m
[35m[HTTP][39m [37m<-- GET /wd/hub/session/d37063ed-73a7-41e7-a026-f90e033dc1a5/window/rect [39m[32m200[39m [90m12 ms - 48[39m
[35m[HTTP][39m [90m[39m
[35m[HTTP][39m [37m-->[39m [37mPOST[39m [37m/wd/hub/session/d37063ed-73a7-41e7-a026-f90e033dc1a5/elements[39m
[35m[HTTP][39m [90m{"using":"xpath","value":"//*[@class = 'android.widget.TextView' and (@text = 'Register, now!' or . = 'Register, now!')]"}[39m
[35m[HTTP][39m [37m<-- POST /wd/hub/session/d37063ed-73a7-41e7-a026-f90e033dc1a5/elements [39m[32m200[39m [90m751 ms - 12[39m
[35m[HTTP][39m [90m[39m
[35m[HTTP][39m [37m-->[39m [37mPOST[39m [37m/wd/hub/session/d37063ed-73a7-41e7-a026-f90e033dc1a5/elements[39m
[35m[HTTP][39m [90m{"using":"xpath","value":"//*[@class = 'android.widget.TextView' and (@text = 'Register, now!' or . = 'Register, now!')]"}[39m
[35m[HTTP][39m [37m<-- POST /wd/hub/session/d37063ed-73a7-41e7-a026-f90e033dc1a5/elements [39m[32m200[39m [90m2296 ms - 139[39m
[35m[HTTP][39m [90m[39m
[35m[HTTP][39m [37m-->[39m [37mGET[39m [37m/wd/hub/session/d37063ed-73a7-41e7-a026-f90e033dc1a5/element/00000000-0000-012a-7fff-ffff000000d2/location[39m
[35m[HTTP][39m [90m{}[39m
[35m[W3C (d37063ed)][39m Driver proxy active, passing request on via HTTP proxy
[35m[WD Proxy][39m Replacing sessionId 73f5882f-b730-414a-a90d-63eae36d75f3 with d37063ed-73a7-41e7-a026-f90e033dc1a5
[35m[HTTP][39m [37m<-- GET /wd/hub/session/d37063ed-73a7-41e7-a026-f90e033dc1a5/element/00000000-0000-012a-7fff-ffff000000d2/location [39m[32m200[39m [90m502 ms - 78[39m
[35m[HTTP][39m [90m[39m
[35m[HTTP][39m [37m-->[39m [37mPOST[39m [37m/wd/hub/session/d37063ed-73a7-41e7-a026-f90e033dc1a5/timeouts[39m
[35m[HTTP][39m [90m{"implicit":30000}[39m
[35m[HTTP][39m [37m<-- POST /wd/hub/session/d37063ed-73a7-41e7-a026-f90e033dc1a5/timeouts [39m[32m200[39m [90m1 ms - 14[39m
[35m[HTTP][39m [90m[39m
[35m[HTTP][39m [37m-->[39m [37mPOST[39m [37m/wd/hub/session/d37063ed-73a7-41e7-a026-f90e033dc1a5/element/00000000-0000-012a-7fff-ffff000000d2/click[39m
[35m[HTTP][39m [90m{"id":"00000000-0000-012a-7fff-ffff000000d2"}[39m
[35m[HTTP][39m [37m<-- POST /wd/hub/session/d37063ed-73a7-41e7-a026-f90e033dc1a5/element/00000000-0000-012a-7fff-ffff000000d2/click [39m[32m200[39m [90m40 ms - 14[39m
[35m[HTTP][39m [90m[39m
[35m[HTTP][39m [37m-->[39m [37mPOST[39m [37m/wd/hub/session/d37063ed-73a7-41e7-a026-f90e033dc1a5/timeouts[39m
[35m[HTTP][39m [90m{"implicit":50}[39m
[35m[HTTP][39m [37m<-- POST /wd/hub/session/d37063ed-73a7-41e7-a026-f90e033dc1a5/timeouts [39m[32m200[39m [90m2 ms - 14[39m
[35m[HTTP][39m [90m[39m
[35m[HTTP][39m [37m-->[39m [37mGET[39m [37m/wd/hub/session/d37063ed-73a7-41e7-a026-f90e033dc1a5/window/rect[39m
[35m[HTTP][39m [90m{}[39m
[35m[HTTP][39m [37m<-- GET /wd/hub/session/d37063ed-73a7-41e7-a026-f90e033dc1a5/window/rect [39m[32m200[39m [90m12 ms - 48[39m
[35m[HTTP][39m [90m[39m
[35m[HTTP][39m [37m-->[39m [37mPOST[39m [37m/wd/hub/session/d37063ed-73a7-41e7-a026-f90e033dc1a5/elements[39m
[35m[HTTP][39m [90m{"using":"xpath","value":"//hierarchy/android.widget.FrameLayout[1]/android.widget.LinearLayout[1]/android.widget.FrameLayout[1]/android.widget.LinearLayout[1]/android.widget.FrameLayout[1]/android.widget.FrameLayout[1]/android.view.ViewGroup[1]/android.view.ViewGroup[1]/android.view.ViewGroup[2]/android.view.ViewGroup[1]/android.view.ViewGroup[1]/android.view.ViewGroup[2]/android.view.ViewGroup[2]/android.view.ViewGroup[1]/android.view.ViewGroup[1]/android.view.ViewGroup[1]/android.view.ViewGroup[2]/android.view.ViewGroup[2]/android.view.ViewGroup[1]/android.view.ViewGroup[1]/android.widget.ScrollView[1]/android.view.ViewGroup[1]/android.widget.EditText[4]"}[39m
[35m[HTTP][39m [37m<-- POST /wd/hub/session/d37063ed-73a7-41e7-a026-f90e033dc1a5/elements [39m[32m200[39m [90m347 ms - 12[39m
[35m[HTTP][39m [90m[39m
[35m[HTTP][39m [37m-->[39m [37mPOST[39m [37m/wd/hub/session/d37063ed-73a7-41e7-a026-f90e033dc1a5/elements[39m
[35m[HTTP][39m [90m{"using":"xpath","value":"//hierarchy/android.widget.FrameLayout[1]/android.widget.LinearLayout[1]/android.widget.FrameLayout[1]/android.widget.LinearLayout[1]/android.widget.FrameLayout[1]/android.widget.FrameLayout[1]/android.view.ViewGroup[1]/android.view.ViewGroup[1]/android.view.ViewGroup[2]/android.view.ViewGroup[1]/android.view.ViewGroup[1]/android.view.ViewGroup[2]/android.view.ViewGroup[2]/android.view.ViewGroup[1]/android.view.ViewGroup[1]/android.view.ViewGroup[1]/android.view.ViewGroup[2]/android.view.ViewGroup[2]/android.view.ViewGroup[1]/android.view.ViewGroup[1]/android.widget.ScrollView[1]/android.view.ViewGroup[1]/android.widget.EditText[4]"}[39m
[35m[HTTP][39m [37m<-- POST /wd/hub/session/d37063ed-73a7-41e7-a026-f90e033dc1a5/elements [39m[32m200[39m [90m1522 ms - 139[39m
[35m[HTTP][39m [90m[39m
[35m[HTTP][39m [37m-->[39m [37mGET[39m [37m/wd/hub/session/d37063ed-73a7-41e7-a026-f90e033dc1a5/element/00000000-0000-012a-7fff-ffff00000103/location[39m
[35m[HTTP][39m [90m{}[39m
[35m[W3C (d37063ed)][39m Driver proxy active, passing request on via HTTP proxy
[35m[WD Proxy][39m Replacing sessionId 73f5882f-b730-414a-a90d-63eae36d75f3 with d37063ed-73a7-41e7-a026-f90e033dc1a5
[35m[HTTP][39m [37m<-- GET /wd/hub/session/d37063ed-73a7-41e7-a026-f90e033dc1a5/element/00000000-0000-012a-7fff-ffff00000103/location [39m[32m200[39m [90m309 ms - 77[39m
[35m[HTTP][39m [90m[39m
[35m[HTTP][39m [37m-->[39m [37mPOST[39m [37m/wd/hub/session/d37063ed-73a7-41e7-a026-f90e033dc1a5/timeouts[39m
[35m[HTTP][39m [90m{"implicit":30000}[39m
[35m[HTTP][39m [37m<-- POST /wd/hub/session/d37063ed-73a7-41e7-a026-f90e033dc1a5/timeouts [39m[32m200[39m [90m1 ms - 14[39m
[35m[HTTP][39m [90m[39m
[35m[HTTP][39m [37m-->[39m [37mPOST[39m [37m/wd/hub/session/d37063ed-73a7-41e7-a026-f90e033dc1a5/element/00000000-0000-012a-7fff-ffff00000103/value[39m
[35m[HTTP][39m [90m{"id":"00000000-0000-012a-7fff-ffff00000103","text":"****$$$$$$$$$$$$","value":["*","*","*","*","$","$","$","$","$","$","$","$","$","$","$","$"]}[39m
[35m[HTTP][39m [37m<-- POST /wd/hub/session/d37063ed-73a7-41e7-a026-f90e033dc1a5/element/00000000-0000-012a-7fff-ffff00000103/value [39m[32m200[39m [90m114 ms - 14[39m
[35m[HTTP][39m [90m[39m
[35m[HTTP][39m [37m-->[39m [37mPOST[39m [37m/wd/hub/session/d37063ed-73a7-41e7-a026-f90e033dc1a5/timeouts[39m
[35m[HTTP][39m [90m{"implicit":50}[39m
[35m[HTTP][39m [37m<-- POST /wd/hub/session/d37063ed-73a7-41e7-a026-f90e033dc1a5/timeouts [39m[32m200[39m [90m1 ms - 14[39m
[35m[HTTP][39m [90m[39m
[35m[HTTP][39m [37m-->[39m [37mGET[39m [37m/wd/hub/session/d37063ed-73a7-41e7-a026-f90e033dc1a5/window/rect[39m
[35m[HTTP][39m [90m{}[39m
[35m[HTTP][39m [37m<-- GET /wd/hub/session/d37063ed-73a7-41e7-a026-f90e033dc1a5/window/rect [39m[32m200[39m [90m12 ms - 48[39m
[35m[HTTP][39m [90m[39m
[35m[HTTP][39m [37m-->[39m [37mPOST[39m [37m/wd/hub/session/d37063ed-73a7-41e7-a026-f90e033dc1a5/elements[39m
[35m[HTTP][39m [90m{"using":"xpath","value":"//*[@class = 'android.widget.TextView' and (@text = 'Password atleast must contain alphanumeric (a-Z,0-9) with minim 8 characters' or . = 'Password atleast must contain alphanumeric (a-Z,0-9) with minim 8 characters')]"}[39m
[35m[HTTP][39m [37m<-- POST /wd/hub/session/d37063ed-73a7-41e7-a026-f90e033dc1a5/elements [39m[32m200[39m [90m1289 ms - 12[39m
[35m[HTTP][39m [90m[39m
[35m[HTTP][39m [37m-->[39m [37mPOST[39m [37m/wd/hub/session/d37063ed-73a7-41e7-a026-f90e033dc1a5/elements[39m
[35m[HTTP][39m [90m{"using":"xpath","value":"//*[@class = 'android.widget.TextView' and (@text = 'Password atleast must contain alphanumeric (a-Z,0-9) with minim 8 characters' or . = 'Password atleast must contain alphanumeric (a-Z,0-9) with minim 8 characters')]"}[39m
[35m[HTTP][39m [37m<-- POST /wd/hub/session/d37063ed-73a7-41e7-a026-f90e033dc1a5/elements [39m[32m200[39m [90m1002 ms - 139[39m
[35m[HTTP][39m [90m[39m
[35m[HTTP][39m [37m-->[39m [37mGET[39m [37m/wd/hub/session/d37063ed-73a7-41e7-a026-f90e033dc1a5/element/00000000-0000-012a-7fff-ffff0000014d/location[39m
[35m[HTTP][39m [90m{}[39m
[35m[W3C (d37063ed)][39m Driver proxy active, passing request on via HTTP proxy
[35m[WD Proxy][39m Replacing sessionId 73f5882f-b730-414a-a90d-63eae36d75f3 with d37063ed-73a7-41e7-a026-f90e033dc1a5
[35m[HTTP][39m [37m<-- GET /wd/hub/session/d37063ed-73a7-41e7-a026-f90e033dc1a5/element/00000000-0000-012a-7fff-ffff0000014d/location [39m[32m200[39m [90m16 ms - 77[39m
[35m[HTTP][39m [90m[39m
[35m[HTTP][39m [37m-->[39m [37mPOST[39m [37m/wd/hub/session/d37063ed-73a7-41e7-a026-f90e033dc1a5/timeouts[39m
[35m[HTTP][39m [90m{"implicit":30000}[39m
[35m[HTTP][39m [37m<-- POST /wd/hub/session/d37063ed-73a7-41e7-a026-f90e033dc1a5/timeouts [39m[32m200[39m [90m1 ms - 14[39m
[35m[HTTP][39m [90m[39m
[35m[HTTP][39m [37m-->[39m [37mGET[39m [37m/wd/hub/session/d37063ed-73a7-41e7-a026-f90e033dc1a5/element/00000000-0000-012a-7fff-ffff0000014d/text[39m
[35m[HTTP][39m [90m{}[39m
[35m[W3C (d37063ed)][39m Driver proxy active, passing request on via HTTP proxy
[35m[WD Proxy][39m Replacing sessionId 73f5882f-b730-414a-a90d-63eae36d75f3 with d37063ed-73a7-41e7-a026-f90e033dc1a5
[35m[HTTP][39m [37m<-- GET /wd/hub/session/d37063ed-73a7-41e7-a026-f90e033dc1a5/element/00000000-0000-012a-7fff-ffff0000014d/text [39m[32m200[39m [90m13 ms - 139[39m
[35m[HTTP][39m [90m[39m
[35m[HTTP][39m [37m-->[39m [37mDELETE[39m [37m/wd/hub/session/d37063ed-73a7-41e7-a026-f90e033dc1a5[39m
[35m[HTTP][39m [90m{}[39m
[35m[Appium][39m Removing session d37063ed-73a7-41e7-a026-f90e033dc1a5 from our master session list
[35m[ADB][39m com.codingid.codingidhive.betastaging was successfully uninstalled
[35m[HTTP][39m [37m<-- DELETE /wd/hub/session/d37063ed-73a7-41e7-a026-f90e033dc1a5 [39m[32m200[39m [90m6259 ms - 14[39m
[35m[HTTP][39m [90m[39m
